 3.60     0.1217     0.0685
 3.65     0.0576     0.0145
 3.70    -0.0007    -0.0315
 3.75    -0.0398    -0.0747
 3.80    -0.0807    -0.1062
 3.85    -0.1165    -0.1409
 3.90    -0.1469    -0.1664
 3.95    -0.1737    -0.1884
 4.00    -0.1965    -0.2107
 4.05    -0.2139    -0.2292
 4.10    -0.2318    -0.2418
 4.15    -0.2459    -0.2531
 4.20    -0.2552    -0.2609
 4.30    -0.2686    -0.2723
 4.40    -0.2760    -0.2784
 4.50    -0.2809    -0.2772
 4.60    -0.2813    -0.2751
 4.70    -0.2790    -0.2730
 4.80    -0.2742    -0.2675
 4.90    -0.2677    -0.2628
 5.00    -0.2623    -0.2591
 5.10    -0.2584    -0.2567
 5.20    -0.2542    -0.2498
 5.30    -0.2480    -0.2449
 5.40    -0.2420    -0.2391
 5.50    -0.2441    -0.2341
 5.60    -0.2390    -0.2293
 5.70    -0.2337    -0.2253
 5.80    -0.2287    -0.2235
 5.90    -0.2248    -0.2164
 6.00    -0.2157    -0.2138
 7.00    -0.1853    -0.1822
 8.00    -0.1563    -0.1523
 9.00    -0.1321    -0.1296
10.00    -0.1124    -0.1104
11.00    -0.0953    -0.0969
12.00    -0.0816    -0.0829
13.00    -0.0706    -0.0715
