73
From opt_geoms/MULTIMERS/febpy3-4h2o-singlet-poses-DBBB.xyz Fe-O Distance: 16.0000 Ang
Fe       0.00000000       0.00000000       0.00000000
N        1.08633404       0.39110983       1.63643249
C        2.16663764      -0.28385300       2.03551392
H        2.47365114      -1.10189644       1.40790867
C        2.86383637       0.02759790       3.18916970
H        3.72613448      -0.56215600       3.46229127
C        2.42252347       1.08574219       3.96857896
H        2.93401693       1.35284416       4.88351151
C        1.30781833       1.79577052       3.55803696
H        0.94291265       2.62368946       4.14563470
C        0.65700331       1.43075849       2.38622929
C       -0.53200654       2.10179570       1.86350430
C       -1.15415905       3.18026021       2.47917233
H       -0.75520233       3.58943479       3.39419726
C       -2.30666763       3.71096799       1.92142519
H       -2.81340888       4.53914505       2.39879508
C       -2.79949551       3.15475646       0.75123954
H       -3.69593083       3.51757168       0.27087210
C       -2.11899199       2.09070415       0.18400523
H       -2.47200796       1.62602872      -0.71538012
N       -1.01563984       1.56700721       0.72007074
N        1.08257830       1.17894989      -1.20098214
C        2.20201591       1.82143926      -0.85967624
H        2.53009957       1.68636092       0.15537843
C        2.91031933       2.61744887      -1.74126389
H        3.80493158       3.11940466      -1.40398836
C        2.43653868       2.76052730      -3.03689778
H        2.95686861       3.38280021      -3.75256494
C        1.28006435       2.09350645      -3.40067095
H        0.89190530       2.18306123      -4.40279892
C        0.62144434       1.30458695      -2.46511380
C       -0.60415382       0.55618265      -2.73890717
C       -1.25964502       0.55462695      -3.96339872
H       -0.86008294       1.11402166      -4.79474925
C       -2.44544931      -0.14923472      -4.09971760
H       -2.97810362      -0.14478312      -5.04156971
C       -2.93624808      -0.84791822      -3.00769749
H       -3.85840196      -1.40811763      -3.04938339
C       -2.22062900      -0.81746699      -1.82297235
H       -2.57236907      -1.34113645      -0.95473217
N       -1.08343786      -0.13453175      -1.68048794
N        1.02328808      -1.65576112      -0.46240669
C        2.11664366      -1.71007743      -1.22689445
H        2.45938934      -0.77379904      -1.62843355
C        2.78320202      -2.89026723      -1.50405125
H        3.65804329      -2.86542593      -2.13709395
C        2.29622818      -4.07138823      -0.96472243
H        2.78457856      -5.01561090      -1.16420635
C        1.16813041      -4.02313628      -0.16435681
H        0.77142915      -4.92594380       0.27249739
C        0.54886711      -2.80226936       0.07345759
C       -0.64727525      -2.63375705       0.89749135
C       -1.31754769      -3.67838755       1.52149940
H       -0.95272193      -4.68950396       1.42875197
C       -2.47259774      -3.41370364       2.23917449
H       -3.01729797      -4.21840326       2.71473464
C       -2.91943313      -2.10389022       2.32560593
H       -3.81612770      -1.83516263       2.86336725
C       -2.19184820      -1.11039450       1.69385824
H       -2.50769989      -0.08531195       1.73527301
N       -1.08524430      -1.35879556       0.99063624
O      -15.98433399       0.67694337      -0.20691689
H      -15.99920548       0.83316816       0.75188985
H      -16.03428368      -0.28276976      -0.35069798
O       -4.32356675       2.19999250      -1.98526374
H       -4.54223515       1.48212774      -1.35283220
H       -5.14605493       2.42730326      -2.43042503
O       -4.31455796       0.78964280       2.85331009
H       -3.55135115       0.71581876       3.45930968
H       -5.04704283       1.13422331       3.37417884
O       -4.41858560      -2.69793243      -0.71922936
H       -5.18490379      -3.28041048      -0.73731887
H       -3.66949878      -3.21218357      -1.08000692
