4.216010860398626, 2.986505182022081
4.216010860398626, 2.9602631786462554
4.216010860398626, 2.93402117527043
4.216010860398626, 2.9077791718946044
4.2258428121850375, 2.8815371685187787
4.2258428121850375, 2.855295165142953
4.229121500709628, 2.8293513663509438
4.232066972458194, 2.7985170123843486
4.232725178435526, 2.76798086300157
4.238949338708682, 2.7413810141251647
4.2455067157578625, 2.715139010749339
4.252064092807043, 2.6888970073735137
4.248781290495094, 2.662655003997688
4.252389082008351, 2.6341466457848592
4.26072008909288, 2.596964794248462
4.268778410843943, 2.5592376543302295
4.276641229748168, 2.526474910721623
4.281559948166279, 2.4938712095577187
4.284132240633053, 2.4580866594997746
4.288109097640743, 2.4163380177655065
4.291716889153999, 2.3824619770439863
4.307775743738473, 2.3479497665436577
4.308106217989591, 2.3149484592679985
4.317279963798671, 2.2846508735522724
4.317938169776004, 2.2545918515035996
4.324162330049159, 2.223300250508486
4.331044696299648, 2.1913724797345653
4.344528515892442, 2.1573260363937212
4.356607770944319, 2.123143270957419
4.370044771719083, 2.090102203070584
4.378238064874426, 2.0582539535190136
4.388070016660839, 2.032250513810241
4.407733920233663, 1.9962955611329734
4.419532262377357, 1.964975559701306
4.445657162838396, 1.9289865265001738
4.4650869723210675, 1.8914979502489944
4.484750875893892, 1.861478688811497
4.515885389884197, 1.8298690029269795
4.5453812452434335, 1.799452135377727
4.58348005841578, 1.7710232983872494
4.668280642573585, 1.7395328943362587
4.771516136330913, 1.7224430607328285
4.879667605981447, 1.7329615496892543
4.982903099738774, 1.7586179877004955
5.086138593496102, 1.776228323850223
5.194290063146635, 1.7689629758081558
5.287693605117552, 1.7438866812599751
5.3761811711952605, 1.7187778553026514
5.479416664952588, 1.6953335531131741
5.5875681346031225, 1.688827271284457
5.6957196042536555, 1.6965263714484389
5.798955098010984, 1.7163922186321219
5.887442664088693, 1.743290272092343
5.961182302486784, 1.771704908864544
6.025089989098463, 1.7996509384336048
6.084081699816936, 1.8268869570888178
6.1430734105354095, 1.8539241726881532
6.206981097147088, 1.881273793089582
6.275804759651973, 1.9078566017040546
6.354460373943271, 1.9344394103185274
6.452779891807392, 1.9607898517248317
6.560931361457926, 1.978248374631889
6.66908283110846, 1.9900681199540584
6.777234300758993, 1.9961406496608611
6.885385770409528, 1.991369376319802
6.993537240060061, 1.9812846394852903
7.1016887097105945, 1.9730433491689154
7.209840179361128, 1.9605729756638743
7.317991649011662, 1.9448494612444747
7.426143118662196, 1.9258728059107166
7.534294588312729, 1.9100408534608382
7.642446057963263, 1.8962692235900538
7.750597527613797, 1.8890038755479863
7.858748997264331, 1.8832566599326197
7.966900466914865, 1.8821722796278333
8.075051936565398, 1.88401572614597
8.183203406215931, 1.8920401404013876
8.291354875866466, 1.9034261336016425
8.399506345517, 1.9164386972590768
8.507657815167533, 1.9306440792517758
8.615809284818067, 1.9472350979150044
8.723960754468601, 1.9639345546087115
8.832112224119134, 1.9784652506928464
8.94026369376967, 1.9892006157102295
9.048415163420202, 1.996791277843733
9.156566633070735, 2.001562551184792
9.26471810272127, 2.0044903780077146
9.372869572371805, 2.002104741337185
9.481021042022338, 1.9986347243618696
9.58917251167287, 1.9940803270817675
9.697323981323404, 1.9895259298016656
9.805475450973939, 1.9859474747958712
9.913626920624473, 1.9833449620643844
10.021778390275006, 1.9833449620643844
10.12992985992554, 1.984646218430128
10.238081329576072, 1.9883331114664007
10.346232799226607, 1.9927790707160242
10.454384268877142, 1.9967912778437331
10.562535738527675, 1.9997191046666558
10.670687208178208, 2.002430055428621
10.778838677828741, 2.0037313117943647
10.886990147479276, 2.002430055428621
10.970561737663779, 2.001237237093356
