26
Fe(py)2]2+ ··· H2O
H        2.88128        2.91707        3.08082
H        1.92872        5.06310        2.20513
C        2.13261        2.92241        2.30074
C        1.60228        4.10880        1.81489
H        2.07281        0.78366        2.12539
C        1.68209        1.72507        1.77158
C        0.64085        4.05107        0.81945
H        0.21430        4.96184        0.42717
N        0.74407        1.66181        0.82109
C        0.22574        2.81399        0.33960
Fe       0.00000        0.00000        0.00000
C        2.56926       -0.76359       -0.94623
H        4.53513       -1.47239       -1.45234
N        1.50333       -0.01722       -1.31326
C        3.69272       -0.87143       -1.75909
C        1.54300        0.63149       -2.48149
C        3.72078       -0.20859       -2.97523
H        0.67418        1.21863       -2.73587
C        2.62353        0.55631       -3.34434
H        4.58337       -0.29120       -3.62285
H        2.59671        1.08610       -4.28623
H       -0.49320        2.77434       -0.39970
H        2.54886       -1.26387       -0.04383
O        3.56717        2.62649       -0.79174
H        3.77784        3.09027       -1.61000
H        4.28995        2.84889       -0.19390
