112

Fe      -0.01394588      -0.00774891      -0.00860342
N        1.07238816       0.38336092       1.62782907
C        2.15269176      -0.29160191       2.02691050
H        2.45970525      -1.10964535       1.39930525
C        2.84989049       0.01984899       3.18056628
H        3.71218859      -0.56990491       3.45368786
C        2.40857759       1.07799328       3.95997554
H        2.92007105       1.34509525       4.87490809
C        1.29387245       1.78802161       3.54943354
H        0.92896677       2.61594055       4.13703128
C        0.64305743       1.42300958       2.37762588
C       -0.54595242       2.09404679       1.85490088
C       -1.16810493       3.17251130       2.47056891
H       -0.76914821       3.58168588       3.38559384
C       -2.32061351       3.70321908       1.91282177
H       -2.82735477       4.53139614       2.39019166
C       -2.81344139       3.14700755       0.74263612
H       -3.70987672       3.50982277       0.26226868
C       -2.13293787       2.08295524       0.17540181
H       -2.48595385       1.61827981      -0.72398354
N       -1.02958572       1.55925830       0.71146732
N        1.06863242       1.17120098      -1.20958556
C        2.18807002       1.81369035      -0.86827965
H        2.51615368       1.67861201       0.14677501
C        2.89637344       2.60969996      -1.74986731
H        3.79098569       3.11165574      -1.41259178
C        2.42259280       2.75277839      -3.04550120
H        2.94292273       3.37505130      -3.76116836
C        1.26611847       2.08575754      -3.40927437
H        0.87795942       2.17531232      -4.41140234
C        0.60749846       1.29683803      -2.47371722
C       -0.61809970       0.54843374      -2.74751059
C       -1.27359090       0.54687804      -3.97200214
H       -0.87402882       1.10627275      -4.80335267
C       -2.45939520      -0.15698363      -4.10832102
H       -2.99204950      -0.15253204      -5.05017312
C       -2.95019396      -0.85566713      -3.01630091
H       -3.87234785      -1.41586654      -3.05798681
C       -2.23457488      -0.82521590      -1.83157577
H       -2.58631495      -1.34888536      -0.96333559
N       -1.09738374      -0.14228066      -1.68909136
N        1.00934220      -1.66351003      -0.47101011
C        2.10269778      -1.71782634      -1.23549787
H        2.44544346      -0.78154795      -1.63703697
C        2.76925613      -2.89801615      -1.51265467
H        3.64409741      -2.87317484      -2.14569737
C        2.28228229      -4.07913715      -0.97332585
H        2.77063267      -5.02335981      -1.17280977
C        1.15418453      -4.03088519      -0.17296023
H        0.75748327      -4.93369271       0.26389397
C        0.53492123      -2.81001827       0.06485418
C       -0.66122113      -2.64150596       0.88888793
C       -1.33149357      -3.68613647       1.51289598
H       -0.96666781      -4.69725287       1.42014855
C       -2.48654363      -3.42145255       2.23057107
H       -3.03124386      -4.22615217       2.70613122
C       -2.93337901      -2.11163913       2.31700251
H       -3.83007358      -1.84291155       2.85476384
C       -2.20579408      -1.11814341       1.68525482
H       -2.52164577      -0.09306086       1.72666959
N       -1.09919019      -1.36654447       0.98203282
O        0.03185851       4.57258824      -0.69525486
H       -0.62399851       4.19395982      -1.28068114
H       -0.09659775       5.51814074      -0.77049636
O        0.06744075      -1.75374877       4.33879913
H       -0.10936390      -2.32356614       5.08731775
H        0.81820112      -2.15660087       3.90256422
O       -0.12893987      -2.88502774      -3.69162873
H       -0.29162261      -3.26666126      -4.55425380
H        0.62672938      -2.31199514      -3.82135721
O        4.59390877       2.34349608       1.41109285
H        3.85703567       2.95413896       1.39198400
H        5.29512872       2.82714535       1.84767710
O        4.50740531      -0.11810362      -2.92927772
H        5.35517126      -0.09789927      -3.37325577
H        4.72435058      -0.10589392      -1.99706663
O        4.58297780      -2.51668840       1.52636344
H        5.41205570      -2.98850223       1.60544183
H        4.78730637      -1.76370183       0.97184301
O       -4.48074421       2.12132564      -2.19133130
H       -4.65071768       1.48031508      -1.50108039
H       -5.34709916       2.33925823      -2.53508459
O       -4.55845229       0.88928634       2.82222187
H       -3.78525635       0.81924284       3.38212703
H       -5.24175455       1.23184842       3.39839985
O       -4.64808357      -2.77450654      -0.61952713
H       -5.38045149      -3.37152933      -0.77260505
H       -3.89539286      -3.21068261      -1.01882522
O       -4.81009091       0.22106618      -0.08836547
H       -4.88450842       0.39978935       0.84905221
H       -4.93468592      -0.72505683      -0.16292530
O        5.14716775      -0.07736240      -0.02843078
H        4.88427355       0.70219556       0.46086246
H        6.10406717      -0.05908974      -0.01289215
O        2.35112519       4.20607344       1.13857396
H        1.61194742       4.25131930       0.53210806
H        2.60952291       5.11825093       1.27046291
O       -2.08336425       3.66818400      -2.53240434
H       -2.87982948       3.14602961      -2.43633266
H       -2.30484696       4.32439061      -3.19313888
O       -2.22341487      -3.95430799      -1.93069388
H       -2.32711838      -4.84180867      -2.27394299
H       -1.53481364      -3.56694033      -2.47107012
O        2.16635340      -1.20015627      -4.35457463
H        2.48627972      -1.40136624      -5.23400259
H        2.91825742      -0.80965481      -3.90917503
O       -1.96928381       0.37641358       4.46626426
H       -1.29606480      -0.29969498       4.38954905
H       -2.03554547       0.54351978       5.40643273
O        2.31802756      -3.21075926       3.17415591
H        2.64368710      -3.91349345       3.73659912
H        3.05727871      -2.99685204       2.60496061
