118

Fe       0.06418747       0.17492041       0.01698008
N        1.12948398       0.68924060       1.88642703
C        2.24371777       0.09671342       2.31018802
H        2.69286637      -0.61139793       1.63307416
C        2.80962991       0.34999143       3.54887419
H        3.71055098      -0.17013672       3.84089285
C        2.17696740       1.26074707       4.38351342
H        2.57284982       1.47935094       5.36637915
C        1.01626030       1.87968770       3.94715437
H        0.50055092       2.57330159       4.59257388
C        0.51216075       1.57888824       2.68515810
C       -0.71325526       2.19451672       2.13781861
C       -1.39775520       3.22292395       2.77392330
H       -1.06599449       3.59760725       3.72970620
C       -2.51769368       3.77266943       2.16518096
H       -3.06259216       4.57065845       2.65265737
C       -2.92572135       3.29014501       0.93184722
H       -3.79269344       3.67378881       0.41425159
C       -2.20177056       2.25455868       0.36230761
H       -2.47988226       1.83653172      -0.59040462
N       -1.13256942       1.71725014       0.95081437
N        1.20639945       1.35644069      -1.39661104
C        2.22100144       2.15196570      -1.05574318
H        2.50788289       2.13980515      -0.01513274
C        2.87966881       2.95378068      -1.97208205
H        3.67496773       3.60360731      -1.63749995
C        2.46695012       2.91174734      -3.29550351
H        2.95092792       3.52516771      -4.04434114
C        1.41124774       2.08902928      -3.65046852
H        1.06789383       2.06216011      -4.67257173
C        0.78328126       1.32359321      -2.67427706
C       -0.40665256       0.49174147      -2.94665988
C       -0.89732636       0.27216507      -4.23080067
H       -0.36022423       0.63702380      -5.09279789
C       -2.07735620      -0.43600043      -4.39414474
H       -2.46864980      -0.62248097      -5.38528317
C       -2.74204451      -0.90734290      -3.27211639
H       -3.66711347      -1.45763076      -3.34890327
C       -2.16874632      -0.69332359      -2.03073445
H       -2.63769409      -1.06896222      -1.13547161
N       -1.02918762      -0.01883278      -1.86994755
N        1.33814941      -1.59188783      -0.35011753
C        2.50908837      -1.55104368      -0.98691313
H        2.82952250      -0.58014750      -1.32736373
C        3.28195304      -2.67621252      -1.21565391
H        4.22481608      -2.58527182      -1.73512781
C        2.80265616      -3.90090792      -0.77033775
H        3.37065361      -4.80832442      -0.92824492
C        1.58331706      -3.94838697      -0.11407256
H        1.20275053      -4.89188437       0.24386148
C        0.86812689      -2.77069339       0.09459179
C       -0.42008795      -2.72571223       0.81134907
C       -1.02676569      -3.85172733       1.35931857
H       -0.56246769      -4.82237742       1.27609481
C       -2.24638226      -3.72224446       2.00710883
H       -2.73461995      -4.59210019       2.42676534
C       -2.82909933      -2.46751321       2.10273096
H       -3.78030732      -2.30816520       2.58781233
C       -2.15695178      -1.39012251       1.54948068
H       -2.56994761      -0.39741855       1.59994149
N       -0.98887529      -1.51169982       0.92039469
O        0.57342074       4.87549402       0.28077761
H        0.09322505       4.61358482      -0.50474611
H        0.30168842       5.77977900       0.43781920
O       -0.84597697       4.34835633      -2.03885655
H       -0.81638420       5.12603697      -2.59614366
H       -1.55251928       3.81693247      -2.40576049
O        0.15440946      -1.92825235       4.26914755
H        0.05409349      -2.49994311       5.03029026
H        0.96257680      -2.22513678       3.85086890
O       -1.63680938      -3.87718850      -3.62229550
H       -1.73850120      -4.27155791      -4.48853068
H       -0.78090121      -3.44968656      -3.65221439
O        0.92024052      -2.83825023      -3.72764254
H        1.42950732      -3.62150949      -3.93593102
H        1.49857344      -2.10927084      -3.95203488
O        4.87212030       2.27357980       1.45886076
H        4.26531059       3.00829466       1.36826333
H        5.51726327       2.57275756       2.09957524
O        4.90298245       0.12011906      -2.80003651
H        5.73902636       0.34056582      -3.21072574
H        5.08593882       0.13438232      -1.86059234
O        4.89238790      -2.00598044       1.81152191
H        5.73617370      -2.43512737       1.95326204
H        5.07105093      -1.33803727       1.14958288
O       -5.03290817       2.14858140      -1.63327232
H       -4.98237106       1.50235292      -0.92895238
H       -5.96036628       2.38069955      -1.67990361
O       -4.34605180       0.52106464       3.19142019
H       -3.53086693       0.36136916       3.66702803
H       -4.97141538       0.78141937       3.86770981
O       -5.03349683      -2.33030153      -0.47061352
H       -5.89143620      -2.66564528      -0.73083735
H       -4.41284121      -2.98523683      -0.79011031
O       -4.78106424       0.29505905       0.36843554
H       -4.75316310       0.33880528       1.32422822
H       -4.89732485      -0.63495796       0.17405530
O        5.51545919       0.05994484      -0.03929065
H        5.24075940       0.82620629       0.46431163
H        6.47064200       0.11766213      -0.06223292
O        3.19865276       4.45524336       1.11903890
H        2.28760755       4.56975557       0.84864025
H        3.55279249       5.34392070       1.15174192
O       -2.92711078       2.97045299      -3.20791933
H       -3.65798762       2.67082926      -2.66729331
H       -3.34221631       3.38360860      -3.96503338
O       -3.27421602      -4.22802724      -1.42312676
H       -3.56321647      -5.13472244      -1.52615294
H       -2.70631287      -4.06999317      -2.17727734
O        2.78942163      -0.88831862      -4.36166549
H        3.17887893      -0.98905461      -5.23023161
H        3.49796946      -0.54116841      -3.81974433
O       -1.92415593      -0.01155603       4.57366110
H       -1.22184823      -0.63609998       4.39216566
H       -1.95040711       0.04923734       5.52856784
O        2.58793177      -2.99095004       3.17568342
H        2.96512154      -3.69019710       3.70954976
H        3.32530210      -2.65241192       2.66783623
