121

Fe       0.04414613       0.14364999       0.04516436
N        1.08226994       0.64298341       1.92669977
C        2.18009143       0.03915427       2.38108709
H        2.62857349      -0.69628129       1.73105486
C        2.73002749       0.31283976       3.62239748
H        3.61805326      -0.21035352       3.94257722
C        2.09101169       1.23999685       4.43335332
H        2.47214459       1.46611267       5.42010916
C        0.94267939       1.86124790       3.97027916
H        0.42005505       2.56626716       4.59758037
C        0.46164341       1.55189092       2.70118530
C       -0.73365048       2.19432219       2.11747833
C       -1.41719183       3.23560379       2.73480509
H       -1.11615744       3.59225618       3.70693483
C       -2.50051775       3.81494028       2.08891938
H       -3.04496329       4.62153085       2.56259049
C       -2.87389497       3.35120660       0.83689958
H       -3.71150243       3.75975163       0.29066886
C       -2.15563928       2.30086117       0.28832531
H       -2.40720425       1.89382117      -0.67665479
N       -1.12424185       1.73327912       0.91481934
N        1.21304227       1.31853334      -1.35979779
C        2.19953074       2.13830560      -0.99704178
H        2.49470095       2.10152590       0.04055635
C        2.82259624       2.99671634      -1.88848496
H        3.59101598       3.66836112      -1.53405086
C        2.40226150       2.98616581      -3.21058605
H        2.85208681       3.64937192      -3.93818737
C        1.37961230       2.13132341      -3.59015595
H        1.02542290       2.13180586      -4.60906119
C        0.78584557       1.31128017      -2.63732017
C       -0.38317177       0.45756497      -2.93007761
C       -0.84613097       0.22569578      -4.22170941
H       -0.29343107       0.58767622      -5.07506119
C       -2.01772855      -0.49263933      -4.40223754
H       -2.39031789      -0.68652878      -5.39924247
C       -2.69851058      -0.96408978      -3.29000648
H       -3.61898851      -1.51984234      -3.37783215
C       -2.14672680      -0.74267679      -2.03983433
H       -2.62568767      -1.12110477      -1.15142390
N       -1.01730747      -0.05623079      -1.86201494
N        1.25743514      -1.66618350      -0.25583334
C        2.43056314      -1.68310073      -0.89044945
H        2.79726255      -0.73156548      -1.24259490
C        3.14628193      -2.84720118      -1.11436760
H        4.09387818      -2.80825603      -1.63216684
C        2.59954368      -4.04656760      -0.67723465
H        3.11533692      -4.98308899      -0.84571165
C        1.37954614      -4.03166503      -0.02027337
H        0.94271441      -4.95655443       0.32325940
C        0.73044781      -2.81747442       0.19671521
C       -0.55375955      -2.70530753       0.91632713
C       -1.18763369      -3.78877223       1.51678542
H       -0.74323046      -4.77205205       1.48910825
C       -2.41052249      -3.60103109       2.14457075
H       -2.92029439      -4.43836998       2.60290986
C       -2.96729388      -2.33093745       2.17154002
H       -3.91923515      -2.12480072       2.63779750
C       -2.26125785      -1.29467438       1.58187487
H       -2.64915159      -0.29023634       1.58993615
N       -1.09185709      -1.47382034       0.96921410
O        0.53754625       4.89027932       0.31262924
H        0.10608850       4.65007895      -0.50735846
H        0.24313919       5.78447553       0.48574611
O       -0.77501805       4.41880862      -2.08225111
H       -0.74488707       5.21808355      -2.60806814
H       -1.46690109       3.89325401      -2.48390029
O       -0.61553538      -1.49889165       4.57477082
H       -1.07655666      -2.19944778       5.03619505
H        0.30516555      -1.75933790       4.60140522
O        1.91942071      -2.56468317       4.75632862
H        2.29801478      -2.92661727       5.55751653
H        2.49055784      -2.88153583       4.05658681
O       -1.77828316      -4.00666254      -3.54989618
H       -1.88243442      -4.40971988      -4.41182956
H       -0.91538033      -3.59353649      -3.58083842
O        0.79847714      -2.99876169      -3.62470621
H        1.30489835      -3.78134546      -3.84226549
H        1.36807805      -2.26898329      -3.86803754
O        4.77042611       2.30734501       1.54617255
H        4.20462016       3.07306904       1.44736879
H        5.29130239       2.49304491       2.32747614
O        4.68378211       0.21744691      -2.95451669
H        5.49694421       0.33496254      -3.44562698
H        4.94345422       0.30042992      -2.03695685
O        5.32698667      -1.49688637       1.72791513
H        6.23112233      -1.55229798       2.03726947
H        5.36611983      -0.90446297       0.97709228
O       -4.94458502       2.33244768      -1.80407395
H       -4.93383068       1.64392745      -1.13920098
H       -5.86557108       2.58350387      -1.87469479
O       -4.64849202       0.71387849       2.91233329
H       -3.90650910       0.70783530       3.51702880
H       -5.38656655       1.01696779       3.44111936
O       -5.07127965      -2.27649135      -0.62038971
H       -5.93657019      -2.61801841      -0.84591884
H       -4.46913412      -2.98993781      -0.83168747
O       -4.74278370       0.37280809       0.10614032
H       -4.81488422       0.45504933       1.05707130
H       -4.91475683      -0.55249050      -0.06844375
O        5.51858738       0.43003050      -0.29244839
H        5.21438243       1.10359742       0.31582688
H        6.45468081       0.60270845      -0.39316210
O        3.12884197       4.48938079       1.20147511
H        2.22985124       4.60968979       0.89557765
H        3.47517566       5.37789920       1.28405750
O       -2.77008080       3.00250818      -3.33240086
H       -3.53887786       2.76359860      -2.81461217
H       -3.12934144       3.38182113      -4.13445156
O       -3.31232639      -4.28175902      -1.29612827
H       -3.61084400      -5.19030971      -1.33680673
H       -2.78326846      -4.16740458      -2.08559176
O        2.61130766      -1.02314051      -4.33421488
H        2.97601453      -1.16708133      -5.20742836
H        3.31386557      -0.59041023      -3.84904611
O       -2.42889257       0.59802053       4.62628930
H       -1.75812494      -0.08288252       4.57458193
H       -2.55841701       0.73654510       5.56451433
O        3.61087276      -3.40040802       2.75314108
H        4.14849906      -4.18668475       2.84779151
H        4.20433293      -2.74704771       2.38279372
