0.00500000000000	0.00000000000000	0.00000000000000	0.00000000000000
0.01500000000000	0.00000000000000	0.00000000000000	0.00000000000000
0.02500000000000	0.00000000000000	0.00000000000000	0.00000000000000
0.03500000000000	0.00000000000000	0.00000000000000	0.00000000000000
0.04500000000000	0.00000000000000	0.00000000000000	0.00000000000000
0.05500000000000	0.00000000000000	0.00000000000000	0.00000000000000
0.06500000000000	0.00000000000000	0.00000000000000	0.00000000000000
0.07500000000000	0.00000000000000	0.00000000000000	0.00000000000000
0.08500000000000	0.00000000000000	0.00000000000000	0.00000000000000
0.09500000000000	0.00000000000000	0.00000000000000	0.00000000000000
0.10500000000000	0.00000000000000	0.00000000000000	0.00000000000000
0.11500000000000	0.00000000000000	0.00000000000000	0.00000000000000
0.12500000000000	0.00000000000000	0.00000000000000	0.00000000000000
0.13500000000000	0.00000000000000	0.00000000000000	0.00000000000000
0.14500000000000	0.00000000000000	0.00000000000000	0.00000000000000
0.15500000000000	0.00000000000000	0.00000000000000	0.00000000000000
0.16500000000000	0.00000000000000	0.00000000000000	0.00000000000000
0.17500000000000	0.00000000000000	0.00000000000000	0.00000000000000
0.18500000000000	0.00000000000000	0.00000000000000	0.00000000000000
0.19500000000000	0.00000000000000	0.00000000000000	0.00000000000000
0.20500000000000	0.00000000000000	0.00000000000000	0.00000000000000
0.21500000000000	0.00000000000000	0.00000000000000	0.00000000000000
0.22500000000000	0.00000000000000	0.00000000000000	0.00000000000000
0.23500000000000	0.00000000000000	0.00000000000000	0.00000000000000
0.24500000000000	0.00000000000000	0.00000000000000	0.00000000000000
0.25500000000000	0.00000000000000	0.00000000000000	0.00000000000000
0.26500000000000	0.00000000000000	0.00000000000000	0.00000000000000
0.27500000000000	0.00000000000000	0.00000000000000	0.00000000000000
0.28500000000000	0.00000000000000	0.00000000000000	0.00000000000000
0.29500000000000	0.00000000000000	0.00000000000000	0.00000000000000
0.30500000000000	0.00000000000000	0.00000000000000	0.00000000000000
0.31500000000000	0.00000000000000	0.00000000000000	0.00000000000000
0.32500000000000	0.00000000000000	0.00000000000000	0.00000000000000
0.33500000000000	0.00000000000000	0.00000000000000	0.00000000000000
0.34500000000000	0.00000000000000	0.00000000000000	0.00000000000000
0.35500000000000	0.00000000000000	0.00000000000000	0.00000000000000
0.36500000000000	0.00000000000000	0.00000000000000	0.00000000000000
0.37500000000000	0.00000000000000	0.00000000000000	0.00000000000000
0.38500000000000	0.00000000000000	0.00000000000000	0.00000000000000
0.39500000000000	0.00000000000000	0.00000000000000	0.00000000000000
0.40500000000000	0.00000000000000	0.00000000000000	0.00000000000000
0.41500000000000	0.00000000000000	0.00000000000000	0.00000000000000
0.42500000000000	0.00000000000000	0.00000000000000	0.00000000000000
0.43500000000000	0.00000000000000	0.00000000000000	0.00000000000000
0.44500000000000	0.00000000000000	0.00000000000000	0.00000000000000
0.45500000000000	0.00000000000000	0.00000000000000	0.00000000000000
0.46500000000000	0.00000000000000	0.00000000000000	0.00000000000000
0.47500000000000	0.00000000000000	0.00000000000000	0.00000000000000
0.48500000000000	0.00000000000000	0.00000000000000	0.00000000000000
0.49500000000000	0.00000000000000	0.00000000000000	0.00000000000000
0.50500000000000	0.00000000000000	0.00000000000000	0.00000000000000
0.51500000000000	0.00000000000000	0.00000000000000	0.00000000000000
0.52500000000000	0.00000000000000	0.00000000000000	0.00000000000000
0.53500000000000	0.00000000000000	0.00000000000000	0.00000000000000
0.54500000000000	0.00000000000000	0.00000000000000	0.00000000000000
0.55500000000000	0.00000000000000	0.00000000000000	0.00000000000000
0.56500000000000	0.00000000000000	0.00000000000000	0.00000000000000
0.57500000000000	0.00000000000000	0.00000000000000	0.00000000000000
0.58500000000000	0.00000000000000	0.00000000000000	0.00000000000000
0.59500000000000	0.00000000000000	0.00000000000000	0.00000000000000
0.60500000000000	0.00000000000000	0.00000000000000	0.00000000000000
0.61500000000000	0.00000000000000	0.00000000000000	0.00000000000000
0.62500000000000	0.00000000000000	0.00000000000000	0.00000000000000
0.63500000000000	0.00000000000000	0.00000000000000	0.00000000000000
0.64500000000000	0.00000000000000	0.00000000000000	0.00000000000000
0.65500000000000	0.00000000000000	0.00000000000000	0.00000000000000
0.66500000000000	0.00000000000000	0.00000000000000	0.00000000000000
0.67500000000000	0.00000000000000	0.00000000000000	0.00000000000000
0.68500000000000	0.00000000000000	0.00000000000000	0.00000000000000
0.69500000000000	0.00000000000000	0.00000000000000	0.00000000000000
0.70500000000000	0.00000000000000	0.00000000000000	0.00000000000000
0.71500000000000	0.00000000000000	0.00000000000000	0.00000000000000
0.72500000000000	0.00000000000000	0.00000000000000	0.00000000000000
0.73500000000000	0.00000000000000	0.00000000000000	0.00000000000000
0.74500000000000	0.00000000000000	0.00000000000000	0.00000000000000
0.75500000000000	0.00000000000000	0.00000000000000	0.00000000000000
0.76500000000000	0.00000000000000	0.00000000000000	0.00000000000000
0.77500000000000	0.00000000000000	0.00000000000000	0.00000000000000
0.78500000000000	0.00000000000000	0.00000000000000	0.00000000000000
0.79500000000000	0.00000000000000	0.00000000000000	0.00000000000000
0.80500000000000	0.00000000000000	0.00000000000000	0.00000000000000
0.81500000000000	0.00000000000000	0.00000000000000	0.00000000000000
0.82500000000000	0.00000000000000	0.00000000000000	0.00000000000000
0.83500000000000	0.00000000000000	0.00000000000000	0.00000000000000
0.84500000000000	0.00000000000000	0.00000000000000	0.00000000000000
0.85500000000000	0.00000000000000	0.00000000000000	0.00000000000000
0.86500000000000	0.00000000000000	0.00000000000000	0.00000000000000
0.87500000000000	0.00000000000000	0.00000000000000	0.00000000000000
0.88500000000000	0.00000000000000	0.00000000000000	0.00000000000000
0.89500000000000	0.00000000000000	0.00000000000000	0.00000000000000
0.90500000000000	0.00000000000000	0.00000000000000	0.00000000000000
0.91500000000000	0.00000000000000	0.00000000000000	0.00000000000000
0.92500000000000	0.00000000000000	0.00000000000000	0.00000000000000
0.93500000000000	0.00000000000000	0.00000000000000	0.00000000000000
0.94500000000000	0.00000000000000	0.00000000000000	0.00000000000000
0.95500000000000	0.00000000000000	0.00000000000000	0.00000000000000
0.96500000000000	0.00000000000000	0.00000000000000	0.00000000000000
0.97500000000000	0.00000000000000	0.00000000000000	0.00000000000000
0.98500000000000	0.00000000000000	0.00000000000000	0.00000000000000
0.99500000000000	0.00000000000000	0.00000000000000	0.00000000000000
1.00500000000000	0.00000000000000	0.00000000000000	0.00000000000000
1.01500000000000	0.00000000000000	0.00000000000000	0.00000000000000
1.02500000000000	0.00000000000000	0.00000000000000	0.00000000000000
1.03500000000000	0.00000000000000	0.00000000000000	0.00000000000000
1.04500000000000	0.00000000000000	0.00000000000000	0.00000000000000
1.05500000000000	0.00000000000000	0.00000000000000	0.00000000000000
1.06500000000000	0.00000000000000	0.00000000000000	0.00000000000000
1.07500000000000	0.00000000000000	0.00000000000000	0.00000000000000
1.08500000000000	0.00000000000000	0.00000000000000	0.00000000000000
1.09500000000000	0.00000000000000	0.00000000000000	0.00000000000000
1.10500000000000	0.00000000000000	0.00000000000000	0.00000000000000
1.11500000000000	0.00000000000000	0.00000000000000	0.00000000000000
1.12500000000000	0.00000000000000	0.00000000000000	0.00000000000000
1.13500000000000	0.00000000000000	0.00000000000000	0.00000000000000
1.14500000000000	0.00000000000000	0.00000000000000	0.00000000000000
1.15500000000000	0.00000000000000	0.00000000000000	0.00000000000000
1.16500000000000	0.00000000000000	0.00000000000000	0.00000000000000
1.17500000000000	0.00000000000000	0.00000000000000	0.00000000000000
1.18500000000000	0.00000000000000	0.00000000000000	0.00000000000000
1.19500000000000	0.00000000000000	0.00000000000000	0.00000000000000
1.20500000000000	0.00000000000000	0.00000000000000	0.00000000000000
1.21500000000000	0.00000000000000	0.00000000000000	0.00000000000000
1.22500000000000	0.00000000000000	0.00000000000000	0.00000000000000
1.23500000000000	0.00000000000000	0.00000000000000	0.00000000000000
1.24500000000000	0.00000000000000	0.00000000000000	0.00000000000000
1.25500000000000	0.00000000000000	0.00000000000000	0.00000000000000
1.26500000000000	0.00000000000000	0.00000000000000	0.00000000000000
1.27500000000000	0.00000000000000	0.00000000000000	0.00000000000000
1.28500000000000	0.00000000000000	0.00000000000000	0.00000000000000
1.29500000000000	0.00000000000000	0.00000000000000	0.00000000000000
1.30500000000000	0.00000000000000	0.00000000000000	0.00000000000000
1.31500000000000	0.00000000000000	0.00000000000000	0.00000000000000
1.32500000000000	0.00000000000000	0.00000000000000	0.00000000000000
1.33500000000000	0.00000000000000	0.00000000000000	0.00000000000000
1.34500000000000	0.00000000000000	0.00000000000000	0.00000000000000
1.35500000000000	0.00000000000000	0.00000000000000	0.00000000000000
1.36500000000000	0.00000000000000	0.00000000000000	0.00000000000000
1.37500000000000	0.00000000000000	0.00000000000000	0.00000000000000
1.38500000000000	0.00000000000000	0.00000000000000	0.00000000000000
1.39500000000000	0.00000000000000	0.00000000000000	0.00000000000000
1.40500000000000	0.00000000000000	0.00000000000000	0.00000000000000
1.41500000000000	0.00000000000000	0.00000000000000	0.00000000000000
1.42500000000000	0.00000000000000	0.00000000000000	0.00000000000000
1.43500000000000	0.00000000000000	0.00000000000000	0.00000000000000
1.44500000000000	0.00000000000000	0.00000000000000	0.00000000000000
1.45500000000000	0.00000000000000	0.00000000000000	0.00000000000000
1.46500000000000	0.00000000000000	0.00000000000000	0.00000000000000
1.47500000000000	0.00000000000000	0.00000000000000	0.00000000000000
1.48500000000000	0.00000000000000	0.00000000000000	0.00000000000000
1.49500000000000	0.00000000000000	0.00000000000000	0.00000000000000
1.50500000000000	0.00000000000000	0.00000000000000	0.00000000000000
1.51500000000000	0.00000000000000	0.00000000000000	0.00000000000000
1.52500000000000	0.00000000000000	0.00000000000000	0.00000000000000
1.53500000000000	0.00000000000000	0.00000000000000	0.00000000000000
1.54500000000000	0.00000000000000	0.00000000000000	0.00000000000000
1.55500000000000	0.00000000000000	0.00000000000000	0.00000000000000
1.56500000000000	0.00000000000000	0.00000000000000	0.00000000000000
1.57500000000000	0.00000000000000	0.00000000000000	0.00000000000000
1.58500000000000	0.00000000000000	0.00000000000000	0.00000000000000
1.59500000000000	0.00000000000000	0.00000000000000	0.00000000000000
1.60500000000000	0.00000000000000	0.00000000000000	0.00000000000000
1.61500000000000	0.00000000000000	0.00000000000000	0.00000000000000
1.62500000000000	0.00000000000000	0.00000000000000	0.00000000000000
1.63500000000000	0.00000000000000	0.00000000000000	0.00000000000000
1.64500000000000	0.00000000000000	0.00000000000000	0.00000000000000
1.65500000000000	0.00000000000000	0.00000000000000	0.00000000000000
1.66500000000000	0.00000000000000	0.00000000000000	0.00000000000000
1.67500000000000	0.00000000000000	0.00000000000000	0.00000000000000
1.68500000000000	0.00000000000000	0.00000000000000	0.00000000000000
1.69500000000000	0.00000000000000	0.00000000000000	0.00000000000000
1.70500000000000	0.00000000000000	0.00000000000000	0.00000000000000
1.71500000000000	0.00000000000000	0.00000000000000	0.00000000000000
1.72500000000000	0.00000000000000	0.00000000000000	0.00000000000000
1.73500000000000	0.00000000000000	0.00000000000000	0.00000000000000
1.74500000000000	0.00000000000000	0.00000000000000	0.00000000000000
1.75500000000000	0.00000000000000	0.00000000000000	0.00000000000000
1.76500000000000	0.00000000000000	0.00000000000000	0.00000000000000
1.77500000000000	0.00000000000000	0.00000000000000	0.00000000000000
1.78500000000000	0.00000000000000	0.00000000000000	0.00000000000000
1.79500000000000	0.00000000000000	0.00000000000000	0.00000000000000
1.80500000000000	0.00000000000000	0.00000000000000	0.00000000000000
1.81500000000000	0.00000000000000	0.00000000000000	0.00000000000000
1.82500000000000	0.00000000000000	0.00000000000000	0.00000000000000
1.83500000000000	0.00000000000000	0.00000000000000	0.00000000000000
1.84500000000000	0.00000000000000	0.00000000000000	0.00000000000000
1.85500000000000	0.00000000000000	0.00000000000000	0.00000000000000
1.86500000000000	0.00000000000000	0.00000000000000	0.00000000000000
1.87500000000000	0.00000000000000	0.00000000000000	0.00000000000000
1.88500000000000	0.00000000000000	0.00000000000000	0.00000000000000
1.89500000000000	0.00000000000000	0.00000000000000	0.00000000000000
1.90500000000000	0.00000000000000	0.00000000000000	0.00000000000000
1.91500000000000	0.00000000000000	0.00000000000000	0.00000000000000
1.92500000000000	0.00000000000000	0.00000000000000	0.00000000000000
1.93500000000000	0.00000000000000	0.00000000000000	0.00000000000000
1.94500000000000	0.00000000000000	0.00000000000000	0.00000000000000
1.95500000000000	0.00000000000000	0.00000000000000	0.00000000000000
1.96500000000000	0.00000000000000	0.00000000000000	0.00000000000000
1.97500000000000	0.00000000000000	0.00000000000000	0.00000000000000
1.98500000000000	0.00000000000000	0.00000000000000	0.00000000000000
1.99500000000000	0.00000000000000	0.00000000000000	0.00000000000000
2.00500000000000	0.00000000000000	0.00000000000000	0.00000000000000
2.01500000000000	0.00000000000000	0.00000000000000	0.00000000000000
2.02500000000000	0.00000000000000	0.00000000000000	0.00000000000000
2.03500000000000	0.00000000000000	0.00000000000000	0.00000000000000
2.04500000000000	0.00000000000000	0.00000000000000	0.00000000000000
2.05500000000000	0.00000000000000	0.00000000000000	0.00000000000000
2.06500000000000	0.00000000000000	0.00000000000000	0.00000000000000
2.07500000000000	0.00000000000000	0.00000000000000	0.00000000000000
2.08500000000000	0.00000000000000	0.00000000000000	0.00000000000000
2.09500000000000	0.00000000000000	0.00000000000000	0.00000000000000
2.10500000000000	0.00000000000000	0.00000000000000	0.00000000000000
2.11500000000000	0.00000000000000	0.00000000000000	0.00000000000000
2.12500000000000	0.00000000000000	0.00000000000000	0.00000000000000
2.13500000000000	0.00000000000000	0.00000000000000	0.00000000000000
2.14500000000000	0.00000000000000	0.00000000000000	0.00000000000000
2.15500000000000	0.00000000000000	0.00000000000000	0.00000000000000
2.16500000000000	0.00000000000000	0.00000000000000	0.00000000000000
2.17500000000000	0.00000000000000	0.00000000000000	0.00000000000000
2.18500000000000	0.00000000000000	0.00000000000000	0.00000000000000
2.19500000000000	0.00000000000000	0.00000000000000	0.00000000000000
2.20500000000000	0.00000000000000	0.00000000000000	0.00000000000000
2.21500000000000	0.00000000000000	0.00000000000000	0.00000000000000
2.22500000000000	0.00000000000000	0.00000000000000	0.00000000000000
2.23500000000000	0.00000000000000	0.00000000000000	0.00000000000000
2.24500000000000	0.00000000000000	0.00000000000000	0.00000000000000
2.25500000000000	0.00000000000000	0.00000000000000	0.00000000000000
2.26500000000000	0.00000000000000	0.00000000000000	0.00000000000000
2.27500000000000	0.00000000000000	0.00000000000000	0.00000000000000
2.28500000000000	0.00000000000000	0.00000000000000	0.00000000000000
2.29500000000000	0.00000000000000	0.00000000000000	0.00000000000000
2.30500000000000	0.00000000000000	0.00000000000000	0.00000000000000
2.31500000000000	0.00000000000000	0.00000000000000	0.00000000000000
2.32500000000000	0.00000000000000	0.00000000000000	0.00000000000000
2.33500000000000	0.00000000000000	0.00000000000000	0.00000000000000
2.34500000000000	0.00000000000000	0.00000000000000	0.00000000000000
2.35500000000000	0.00000000000000	0.00000000000000	0.00000000000000
2.36500000000000	0.00000000000000	0.00000000000000	0.00000000000000
2.37500000000000	0.00000000000000	0.00000000000000	0.00000000000000
2.38500000000000	0.00000000000000	0.00000000000000	0.00000000000000
2.39500000000000	0.00000000000000	0.00000000000000	0.00000000000000
2.40500000000000	0.00000000000000	0.00000000000000	0.00000000000000
2.41500000000000	0.00000000000000	0.00000000000000	0.00000000000000
2.42500000000000	0.00000000000000	0.00000000000000	0.00000000000000
2.43500000000000	0.00000000000000	0.00000000000000	0.00000000000000
2.44500000000000	0.00000000000000	0.00000000000000	0.00000000000000
2.45500000000000	0.00000000000000	0.00000000000000	0.00000000000000
2.46500000000000	0.00000000000000	0.00000000000000	0.00000000000000
2.47500000000000	0.00000000000000	0.00000000000000	0.00000000000000
2.48500000000000	0.00000000000000	0.00000000000000	0.00000000000000
2.49500000000000	0.00000000000000	0.00000000000000	0.00000000000000
2.50500000000000	0.00000000000000	0.00000000000000	0.00000000000000
2.51500000000000	0.00000000000000	0.00000000000000	0.00000000000000
2.52500000000000	0.00000000000000	0.00000000000000	0.00000000000000
2.53500000000000	0.00000000000000	0.00000000000000	0.00000000000000
2.54500000000000	0.00000000000000	0.00000000000000	0.00000000000000
2.55500000000000	0.00000000000000	0.00000000000000	0.00000000000000
2.56500000000000	0.00000000000000	0.00000000000000	0.00000000000000
2.57500000000000	0.00000000000000	0.00000000000000	0.00000000000000
2.58500000000000	0.00000000000000	0.00000000000000	0.00000000000000
2.59500000000000	0.00000000000000	0.00000000000000	0.00000000000000
2.60500000000000	0.00000000000000	0.00000000000000	0.00000000000000
2.61500000000000	0.00000000000000	0.00000000000000	0.00000000000000
2.62500000000000	0.00000000000000	0.00000000000000	0.00000000000000
2.63500000000000	0.00000000000000	0.00000000000000	0.00000000000000
2.64500000000000	0.00000000000000	0.00000000000000	0.00000000000000
2.65500000000000	0.00001107431948	0.00000031565657	0.00001010101010
2.66500000000000	0.00000000000000	0.00000031565657	0.00000000000000
2.67500000000000	0.00001090934142	0.00000063131313	0.00001010101010
2.68500000000000	0.00003789881009	0.00000173611111	0.00003535353535
2.69500000000000	0.00002687005675	0.00000252525253	0.00002525252525
2.70500000000000	0.00009601831674	0.00000536616162	0.00009090909091
2.71500000000000	0.00009531230290	0.00000820707071	0.00009090909091
2.72500000000000	0.00012615206320	0.00001199494949	0.00012121212121
2.73500000000000	0.00017219296782	0.00001720328283	0.00016666666667
2.74500000000000	0.00032116124163	0.00002698863636	0.00031313131313
2.75500000000000	0.00040111373751	0.00003929924242	0.00039393939394
2.76500000000000	0.00066369603678	0.00005981691919	0.00065656565657
2.77500000000000	0.00087180352093	0.00008696338384	0.00086868686869
2.78500000000000	0.00120774985141	0.00012484217172	0.00121212121212
2.79500000000000	0.00172373946138	0.00017929292929	0.00174242424242
2.80500000000000	0.00221251021354	0.00024968434343	0.00225252525253
2.81500000000000	0.00281251903101	0.00033980429293	0.00288383838384
2.82500000000000	0.00378547358064	0.00046196338384	0.00390909090909
2.83500000000000	0.00481749987485	0.00061852904040	0.00501010101010
2.84500000000000	0.00572403587493	0.00080587121212	0.00599494949495
2.85500000000000	0.00724028628253	0.00104450757576	0.00763636363636
2.86500000000000	0.00964350419602	0.00136458333333	0.01024242424242
2.87500000000000	0.01200844686977	0.00176594065657	0.01284343434343
2.88500000000000	0.01415284604007	0.00224226641414	0.01524242424242
2.89500000000000	0.01695663717726	0.00281691919192	0.01838888888889
2.90500000000000	0.02121084472634	0.00354071969697	0.02316161616162
2.91500000000000	0.02426260732031	0.00437436868687	0.02667676767677
2.92500000000000	0.02909705049352	0.00538099747475	0.03221212121212
2.93500000000000	0.03446778708881	0.00658159722222	0.03841919191919
2.94500000000000	0.04051208635287	0.00800236742424	0.04546464646465
2.95500000000000	0.04602245329293	0.00962736742424	0.05200000000000
2.96500000000000	0.05428142009481	0.01155697601010	0.06174747474747
2.97500000000000	0.06129069908223	0.01375047348485	0.07019191919192
2.98500000000000	0.07016747181486	0.01627856691919	0.08089898989899
2.99500000000000	0.07945973570578	0.01916066919192	0.09222727272727
3.00500000000000	0.09047695776140	0.02246433080808	0.10571717171717
3.01500000000000	0.10139803421013	0.02619144570707	0.11926767676768
3.02500000000000	0.11291088493870	0.03036931818182	0.13369191919192
3.03500000000000	0.12762606565736	0.03512294823232	0.15211616161616
3.04500000000000	0.14399805299687	0.04052178030303	0.17276262626263
3.05500000000000	0.15970999128851	0.04654908459596	0.19287373737374
3.06500000000000	0.17701319856590	0.05327320075758	0.21517171717172
3.07500000000000	0.19891791926739	0.06087878787879	0.24337878787879
3.08500000000000	0.21811978614480	0.06927288510101	0.26861111111111
3.09500000000000	0.24084697541562	0.07860179924242	0.29852525252525
3.10500000000000	0.26590479953538	0.08896796085859	0.33171717171717
3.11500000000000	0.29101050236326	0.10038604797980	0.36537878787879
3.12500000000000	0.31891544575529	0.11297948232323	0.40298989898990
3.13500000000000	0.34685612917508	0.12676404671717	0.44110606060606
3.14500000000000	0.37533923406838	0.14177588383838	0.48037878787879
3.15500000000000	0.40812103760701	0.15820280934343	0.52566161616162
3.16500000000000	0.43948031113117	0.17600426136364	0.56964646464646
3.17500000000000	0.47299251401535	0.19528440656566	0.61696464646465
3.18500000000000	0.50369798023467	0.21594570707071	0.66116161616162
3.19500000000000	0.53773074296772	0.23814172979798	0.71027272727273
3.20500000000000	0.57161460028120	0.26188431186869	0.75976262626263
3.21500000000000	0.59987486977707	0.28695643939394	0.80230808080808
3.22500000000000	0.63192103357127	0.31353251262626	0.85043434343434
3.23500000000000	0.66125518112734	0.34151499368687	0.89543939393939
3.24500000000000	0.69268495088097	0.37100899621212	0.94380808080808
3.25500000000000	0.71798436451997	0.40176893939394	0.98431818181818
3.26500000000000	0.74307847603134	0.43379987373737	1.02498989898990
3.27500000000000	0.76886484360493	0.46714567550505	1.06706565656566
3.28500000000000	0.78788571229700	0.50152541035354	1.10015151515152
3.29500000000000	0.81188188100223	0.53716824494949	1.14057070707071
3.30500000000000	0.83160009546372	0.57389867424242	1.17537373737374
3.31500000000000	0.84738629495534	0.61155318813131	1.20494444444444
3.32500000000000	0.86281954718742	0.65012515782828	1.23430303030303
3.33500000000000	0.88183930351188	0.68978488005051	1.26911111111111
3.34500000000000	0.89189906948834	0.73013794191919	1.29129797979798
3.35500000000000	0.90740627291066	0.77143844696970	1.32161616161616
3.36500000000000	0.91530597549948	0.81334722222222	1.34108080808081
3.37500000000000	0.92570050624597	0.85598421717172	1.36438383838384
3.38500000000000	0.93556467263766	0.89933128156566	1.38710606060606
3.39500000000000	0.94256729866938	0.94326120580808	1.40575757575758
3.40500000000000	0.94728003503935	0.98767124368687	1.42112121212121
3.41500000000000	0.95329034477480	1.03262594696970	1.43855050505051
3.42500000000000	0.95952052695130	1.07813983585859	1.45644444444444
3.43500000000000	0.96301572313187	1.12408664772727	1.47029797979798
3.44500000000000	0.96833213209199	1.17055650252525	1.48703535353535
3.45500000000000	0.97121996402397	1.21743592171717	1.50014141414141
3.46500000000000	0.97443873718571	1.26474337121212	1.51383838383838
3.47500000000000	0.97235199996506	1.31222238005051	1.51932828282828
3.48500000000000	0.97724694904817	1.36021543560606	1.53577777777778
3.49500000000000	0.97584863847886	1.40841524621212	1.54239393939394
3.50500000000000	0.97792299888448	1.45699431818182	1.55453030303030
3.51500000000000	0.97780663210316	1.50584517045455	1.56322727272727
3.52500000000000	0.97983071908587	1.55507607323232	1.57538888888889
3.53500000000000	0.98050755107705	1.60462089646465	1.58543434343434
3.54500000000000	0.97393068819973	1.65411221590909	1.58372222222222
3.55500000000000	0.97496031744635	1.70393576388889	1.59435353535354
3.56500000000000	0.97714239528905	1.75415214646465	1.60692424242424
3.57500000000000	0.97394344852831	1.80448532196970	1.61066161616162
3.58500000000000	0.96554745415751	1.85466414141414	1.60572222222222
3.59500000000000	0.96778183849245	1.90524005681818	1.61842929292929
3.60500000000000	0.96373564686655	1.95588510101010	1.62064141414141
3.61500000000000	0.96311828147851	2.00677888257576	1.62860101010101
3.62500000000000	0.96339899248219	2.05796953914141	1.63810101010101
3.63500000000000	0.95948511331704	2.10923390151515	1.64045959595960
3.64500000000000	0.95539985347085	2.16056123737374	1.64247474747475
3.65500000000000	0.95214543337048	2.21199479166667	1.64587373737374
3.66500000000000	0.94823520265484	2.26349779040404	1.64809595959596
3.67500000000000	0.94484756871315	2.31509722222222	1.65118181818182
3.68500000000000	0.93713090794362	2.36655413510101	1.64662121212121
3.69500000000000	0.93926958509086	2.41840877525253	1.65934848484848
3.70500000000000	0.93243185984402	2.47016493055556	1.65619696969697
3.71500000000000	0.92830682892527	2.52197064393939	1.65778282828283
3.72500000000000	0.92706775032290	2.57398611111111	1.66449494949495
3.73500000000000	0.92185556998184	2.62598721590909	1.66403535353535
3.74500000000000	0.91776835168945	2.67803535353535	1.66554040404040
3.75500000000000	0.91151636079458	2.73000536616162	1.66304040404040
3.76500000000000	0.90986379727277	2.78215782828283	1.66887878787879
3.77500000000000	0.90676155160160	2.83440893308081	1.67203535353535
3.78500000000000	0.89988141154668	2.88653866792929	1.66815151515152
3.79500000000000	0.89884997513189	2.93888415404040	1.67505555555556
3.80500000000000	0.89527737954005	2.99129671717172	1.67720202020202
3.81500000000000	0.89156088775767	3.04376641414141	1.67903030303030
3.82500000000000	0.88666245800684	3.09622174873737	1.67857070707071
3.83500000000000	0.88219836141817	3.14868623737374	1.67886363636364
3.84500000000000	0.87764456444232	3.20115246212121	1.67891919191919
3.85500000000000	0.87428959758227	3.25369034090909	1.68121212121212
3.86500000000000	0.87035137174152	3.30626325757576	1.68233333333333
3.87500000000000	0.86513720268134	3.35879198232323	1.68091919191919
3.88500000000000	0.86116762272228	3.41134990530303	1.68185353535354
3.89500000000000	0.86037642523552	3.46413020833333	1.68896969696970
3.90500000000000	0.85847371468594	3.51706455176768	1.69389898989899
3.91500000000000	0.85384928712008	3.56998374368687	1.69341414141414
3.92500000000000	0.85131552739590	3.62301578282828	1.69702525252525
3.93500000000000	0.84696136855049	3.67604577020202	1.69695959595960
3.94500000000000	0.84415266815048	3.72916887626263	1.69993939393939
3.95500000000000	0.84026108017018	3.78231549873737	1.70069191919192
3.96500000000000	0.83754498566039	3.83555855429293	1.70377777777778
3.97500000000000	0.83477885579824	3.88889378156566	1.70672727272727
3.98500000000000	0.83018158646905	3.94220249368687	1.70587878787879
3.99500000000000	0.82815590086559	3.99564835858586	1.71026767676768
4.00500000000000	0.82638340898762	4.04924715909091	1.71516161616162
4.01500000000000	0.82114374004183	4.10277241161616	1.71280808080808
4.02500000000000	0.81667588314755	4.15627193813131	1.71198484848485
4.03500000000000	0.81656217891467	4.21003014520202	1.72026262626263
4.04500000000000	0.81460755143616	4.26392582070707	1.72466161616162
4.05500000000000	0.81151810260531	4.31788289141414	1.72662626262626
4.06500000000000	0.81071675772955	4.37205287247475	1.73343939393939
4.07500000000000	0.80840447095980	4.42633443813131	1.73701010101010
4.08500000000000	0.80558114310949	4.48069223484849	1.73944949494949
4.09500000000000	0.80427702105996	4.53522806186869	1.74514646464646
4.10500000000000	0.80192675748778	4.58987042297980	1.74855555555556
4.11500000000000	0.80073771788384	4.64469791666667	1.75447979797980
4.12500000000000	0.79800011358043	4.69960385101010	1.75698989898990
4.13500000000000	0.79429114644773	4.75451988636364	1.75731313131313
4.14500000000000	0.79601776044692	4.80982181186869	1.76966161616162
4.15500000000000	0.79565892404596	4.86536584595960	1.77740909090909
4.16500000000000	0.79258082802222	4.92096164772727	1.77906565656566
4.17500000000000	0.79004032575782	4.97664567550505	1.78188888888889
4.18500000000000	0.79030519028091	5.03261553030303	1.79103535353535
4.19500000000000	0.78872874173005	5.08874100378788	1.79601515151515
4.20500000000000	0.78661751500976	5.14498342803030	1.79975757575758
4.21500000000000	0.78663528599377	5.20149494949495	1.80836868686869
4.22500000000000	0.78506974664304	5.25816193181818	1.81334343434343
4.23500000000000	0.78496176597624	5.31508964646465	1.82168686868687
4.24500000000000	0.78335803747521	5.37216966540404	1.82656060606061
4.25500000000000	0.78329781285113	5.42951452020202	1.83503535353535
4.26500000000000	0.78158160637720	5.48700299873737	1.83963131313131
4.27500000000000	0.78309566762606	5.54487326388889	1.85184848484848
4.28500000000000	0.78302041133518	5.60300899621212	1.86034343434343
4.29500000000000	0.78265595346845	5.66138920454546	1.86816666666667
4.30500000000000	0.78034043142458	5.71986805555556	1.87132323232323
4.31500000000000	0.77911963665275	5.77852698863636	1.87708585858586
4.32500000000000	0.78026383441343	5.83754466540404	1.88856565656566
4.33500000000000	0.77929764735487	5.89676215277778	1.89495959595960
4.34500000000000	0.77890269745911	5.95622301136364	1.90274747474747
4.35500000000000	0.77869660277955	6.01594207702020	1.91101010101010
4.36500000000000	0.77719362793499	6.07581991792929	1.91609090909091
4.37500000000000	0.77817387307875	6.13604829545455	1.92730808080808
4.38500000000000	0.77875547926209	6.19659753787879	1.93757575757576
4.39500000000000	0.77840634974206	6.25739599116162	1.94555050505051
4.40500000000000	0.77671268709382	6.31833854166667	1.95016161616162
4.41500000000000	0.77738321232360	6.37961095328283	1.96071717171717
4.42500000000000	0.77856400836337	6.44125473484848	1.97260101010101
4.43500000000000	0.77901187811257	6.50321306818182	1.98266666666667
4.44500000000000	0.77741507092434	6.56532354797980	1.98753535353535
4.45500000000000	0.77750619698586	6.62772111742424	1.99672222222222
4.46500000000000	0.77791370726581	6.69043197601010	2.00674747474747
4.47500000000000	0.77811880381143	6.75344065656566	2.01627777777778
4.48500000000000	0.77624781133472	6.81657907196970	2.02042929292929
4.49500000000000	0.77758477075916	6.88010858585859	2.03294444444444
4.50500000000000	0.77745404524085	6.94391035353535	2.04165656565657
4.51500000000000	0.77743364443486	7.00799400252525	2.05067676767677
4.52500000000000	0.77873067179289	7.07246922348485	2.06320707070707
4.53500000000000	0.77998973282554	7.13733443813131	2.07568686868687
4.54500000000000	0.77985651349039	7.20247490530303	2.08449494949495
4.55500000000000	0.77912812207258	7.26784122474747	2.09172222222222
4.56500000000000	0.77873575931167	7.33346180555556	2.09985858585859
4.57500000000000	0.77957388167669	7.39944113005050	2.11133838383838
4.58500000000000	0.77933712547056	7.46568907828283	2.11993434343434
4.59500000000000	0.77892497142870	7.53219113005051	2.12806565656566
4.60500000000000	0.77632242189270	7.59875978535354	2.13019696969697
4.61500000000000	0.77967462057950	7.66590656565657	2.14869696969697
4.62500000000000	0.77715336462647	7.73312657828283	2.15104040404040
4.63500000000000	0.77537513848364	7.80048311237374	2.15540909090909
4.64500000000000	0.77556056305002	7.86814678030303	2.16523737373737
4.65500000000000	0.77380628574621	7.93594839015152	2.16965151515152
4.66500000000000	0.77521475878939	8.00416556186869	2.18294949494949
4.67500000000000	0.77303948829655	8.07248327020202	2.18616666666667
4.68500000000000	0.77161546605419	8.14096717171717	2.19148484848485
4.69500000000000	0.77290218051135	8.20985842803030	2.20452020202020
4.70500000000000	0.77100079458376	8.27887326388889	2.20847474747475
4.71500000000000	0.77031474230696	8.34812010732323	2.21589898989899
4.72500000000000	0.76981814819561	8.41761616161616	2.22387373737374
4.73500000000000	0.76938154592594	8.48736710858586	2.23203030303030
4.74500000000000	0.77014141977358	8.55748216540404	2.24368181818182
4.75500000000000	0.76777558970884	8.62767676767677	2.24622727272727
4.76500000000000	0.76580616507791	8.69798611111111	2.24989898989899
4.77500000000000	0.76339626557914	8.76836868686869	2.25224242424242
4.78500000000000	0.76128448903414	8.83885085227273	2.25542929292929
4.79500000000000	0.76170462853585	8.90966698232323	2.26611616161616
4.80500000000000	0.76134209523883	8.98074494949495	2.27449494949495
4.81500000000000	0.75681428454975	9.05169460227273	2.27038888888889
4.82500000000000	0.75680560992700	9.12293844696970	2.27980303030303
4.83500000000000	0.75535797888762	9.19434106691919	2.28488383838384
4.84500000000000	0.75319420230153	9.26583396464646	2.28777272727273
4.85500000000000	0.75319617053587	9.33762247474747	2.29723232323232
4.86500000000000	0.75090938372377	9.40948816287879	2.29970202020202
4.87500000000000	0.74692366786108	9.48126657196970	2.29690909090909
4.88500000000000	0.74553548524777	9.55320580808081	2.30205555555556
4.89500000000000	0.74454172226385	9.62534359217172	2.30840909090909
4.90500000000000	0.74277276282773	9.69760432449495	2.31234343434343
4.91500000000000	0.74153874977375	9.77003945707071	2.31792424242424
4.92500000000000	0.73907277599436	9.84252777777778	2.31962626262626
4.93500000000000	0.73883395728897	9.91528724747475	2.32830303030303
4.94500000000000	0.73446487918276	9.98790988005051	2.32392424242424
4.95500000000000	0.73603889134269	10.06098279671717	2.33833333333333
4.96500000000000	0.73297721693029	10.13404577020202	2.33801515151515
4.97500000000000	0.72972917726921	10.20707828282828	2.33704040404040
4.98500000000000	0.72811121598959	10.28024210858586	2.34124242424242
4.99500000000000	0.72666148120311	10.35355350378788	2.34596464646465
5.00500000000000	0.72438078316272	10.42692771464647	2.34797474747475
5.01500000000000	0.72083523376991	10.50023484848485	2.34582828282828
5.02500000000000	0.72053816006907	10.57380429292929	2.35422222222222
5.03500000000000	0.71823931223188	10.64743118686869	2.35606060606061
5.04500000000000	0.71583032821100	10.72110290404040	2.35749494949495
5.05500000000000	0.71420614091303	10.79489914772727	2.36147979797980
5.06500000000000	0.71467357307917	10.86903614267677	2.37238383838384
5.07500000000000	0.70879109540563	10.94285353535354	2.36215656565657
5.08500000000000	0.70791709857980	11.01687073863636	2.36855050505050
5.09500000000000	0.70732115549144	11.09111679292929	2.37587373737374
5.10500000000000	0.70504102915073	11.16541429924242	2.37752020202020
5.11500000000000	0.70383401474463	11.23987547348485	2.38275757575758
5.12500000000000	0.70151800375183	11.31438210227273	2.38421212121212
5.13500000000000	0.69938786712545	11.38895265151515	2.38625757575758
5.14500000000000	0.69734270011594	11.46359501262626	2.38855555555556
5.15500000000000	0.69701191758458	11.53849226641414	2.39671212121212
5.16500000000000	0.69684818660734	11.61366272095960	2.40545454545455
5.17500000000000	0.69503067320482	11.68892771464646	2.40847979797980
5.18500000000000	0.69375480906120	11.76434517045455	2.41335858585859
5.19500000000000	0.68881445538005	11.83951467803030	2.40542424242424
5.20500000000000	0.68903870060655	11.91499842171717	2.41547979797980
5.21500000000000	0.68852852322073	11.99071638257576	2.42297474747475
5.22500000000000	0.68815159145788	12.06668339646465	2.43094444444444
5.23500000000000	0.68640239356822	12.14274763257576	2.43405555555556
5.24500000000000	0.68366409364687	12.21879813762626	2.43361616161616
5.25500000000000	0.68305470803919	12.29507086489899	2.44072727272727
5.26500000000000	0.68252245818942	12.37157449494950	2.44811616161616
5.27500000000000	0.68050244584549	12.44814172979798	2.45015151515152
5.28500000000000	0.67927537490500	12.52486095328283	2.45501515151515
5.29500000000000	0.67854552998423	12.60178803661616	2.46166666666667
5.30500000000000	0.67737393396191	12.67887263257576	2.46670707070707
5.31500000000000	0.67578078306137	12.75606613005051	2.47019191919192
5.32500000000000	0.67587552110933	12.83356123737374	2.47984343434343
5.33500000000000	0.67488143606110	12.91123327020202	2.48550505050505
5.34500000000000	0.67363456850075	12.98905271464647	2.49022222222222
5.35500000000000	0.67260327311877	13.06704403409091	2.49572222222222
5.36500000000000	0.67299883576218	13.14537294823232	2.50652525252525
5.37500000000000	0.67297204020618	13.22399100378788	2.51577777777778
5.38500000000000	0.67261776183660	13.30286032196970	2.52381818181818
5.39500000000000	0.67170898534359	13.38191587752525	2.52977777777778
5.40500000000000	0.67197137348915	13.46129577020202	2.54015656565657
5.41500000000000	0.67209812428101	13.54098469065657	2.55004545454545
5.42500000000000	0.66984675946849	13.62070028409091	2.55089898989899
5.43500000000000	0.67028312909100	13.70076215277778	2.56197979797980
5.44500000000000	0.67195850244933	13.78131976010101	2.57784343434343
5.45500000000000	0.67302553054470	13.86230192550505	2.59142929292929
5.46500000000000	0.67187816100943	13.94344270833333	2.59650505050505
5.47500000000000	0.67166308159933	14.02485464015152	2.60518181818182
5.48500000000000	0.67307200241468	14.10673563762626	2.62019191919192
5.49500000000000	0.67307016522362	14.18891524621212	2.62974747474747
5.50500000000000	0.67462104114317	14.27158428030303	2.64540909090909
5.51500000000000	0.67410555246557	14.35449053030303	2.65300000000000
5.52500000000000	0.67548816876520	14.43786837121212	2.66809090909091
5.53500000000000	0.67626524948886	14.52164457070707	2.68083838383838
5.54500000000000	0.67675559710006	14.60578472222222	2.69248484848485
5.55500000000000	0.67786161843084	14.69036663510101	2.70662121212121
5.56500000000000	0.67883559469216	14.77537531565657	2.72027777777778
5.57500000000000	0.68180125705411	14.86106250000000	2.74198989898990
5.58500000000000	0.68111000029488	14.94697017045455	2.74904545454545
5.59500000000000	0.68338434878358	15.03347364267677	2.76811111111111
5.60500000000000	0.68341795648137	15.12029087752525	2.77815151515152
5.61500000000000	0.68635874135114	15.20779308712121	2.80007070707071
5.62500000000000	0.68946675300169	15.29600489267677	2.82277777777778
5.63500000000000	0.68988714351736	15.38458459595960	2.83455050505051
5.64500000000000	0.69119438278174	15.47364741161616	2.85001010101010
5.65500000000000	0.69370128371006	15.56335022095960	2.87048989898990
5.66500000000000	0.69580307843621	15.65364330808081	2.88937878787879
5.67500000000000	0.69727009316166	15.74444649621212	2.90570202020202
5.68500000000000	0.69898938869517	15.83579466540404	2.92314141414141
5.69500000000000	0.70072962629543	15.92769270833333	2.94073737373737
5.70500000000000	0.70341516633603	16.02026720328283	2.96238383838384
5.71500000000000	0.70338161536276	16.11316208964647	2.97263636363636
5.72500000000000	0.70851954125102	16.20706328914142	3.00483838383838
5.73500000000000	0.70959795207056	16.30143623737374	3.01993434343434
5.74500000000000	0.71246802655001	16.39652162247475	3.04273232323232
5.75500000000000	0.71500747760598	16.49227840909091	3.06421717171717
5.76500000000000	0.71572702271208	16.58846496212121	3.07796969696970
5.77500000000000	0.71771765383653	16.68525394570707	3.09724747474747
5.78500000000000	0.72111313984638	16.78283791035354	3.12268686868687
5.79500000000000	0.72318964462260	16.88104150883838	3.14251515151515
5.80500000000000	0.72503792552456	16.97983617424243	3.16142929292929
5.81500000000000	0.72741174502285	17.07929608585859	3.18271717171717
5.82500000000000	0.73026540005196	17.17948989898990	3.20620202020202
5.83500000000000	0.73212194607104	17.28028361742424	3.22539898989899
5.84500000000000	0.73709990713736	17.38211079545455	3.25846969696970
5.85500000000000	0.73591748484676	17.48412279040404	3.26438383838384
5.86500000000000	0.73784109994070	17.58675110479798	3.28410606060606
5.87500000000000	0.74063733525000	17.69011994949495	3.30780303030303
5.88500000000000	0.74334720802652	17.79422048611111	3.33121717171717
5.89500000000000	0.74392287014488	17.89875599747475	3.34513636363636
5.90500000000000	0.74708509027984	18.00409232954545	3.37076262626263
5.91500000000000	0.74769263502212	18.10987168560606	3.38493939393939
5.92500000000000	0.75020640295060	18.21636584595960	3.40781313131313
5.93500000000000	0.75138037063762	18.32338699494949	3.42467676767677
5.94500000000000	0.75299499064169	18.43099984217172	3.44361111111111
5.95500000000000	0.75673091669682	18.53951073232323	3.47234848484849
5.96500000000000	0.75673310380334	18.64838667929293	3.48403030303030
5.97500000000000	0.75945336242162	18.75802067550505	3.50828787878788
5.98500000000000	0.76039688926870	18.86815861742424	3.52441414141414
5.99500000000000	0.76209337233879	18.97891145833333	3.54409090909091
6.00500000000000	0.76367151831567	19.09026420454546	3.56328787878788
6.01500000000000	0.76550035295572	19.20225568181818	3.58372727272727
6.02500000000000	0.76643975969938	19.31475773358586	3.60006565656566
6.03500000000000	0.76773203849745	19.42782386363637	3.61811616161616
6.04500000000000	0.76871570660259	19.54141035353535	3.63476767676768
6.05500000000000	0.77099070488840	19.65571022727273	3.65759595959596
6.06500000000000	0.77114025516684	19.77041019570707	3.67039898989899
6.07500000000000	0.77404922577662	19.88592282196970	3.69640404040404
6.08500000000000	0.77496580441279	20.00195328282828	3.71297474747475
6.09500000000000	0.77624204363867	20.11855713383838	3.73132323232323
6.10500000000000	0.77609723481145	20.23552209595960	3.74287878787879
6.11500000000000	0.77811304948050	20.35317534722222	3.76490404040404
6.12500000000000	0.77896192037187	20.47134248737374	3.78134848484848
6.13500000000000	0.78105592140163	20.59021448863636	3.80390404040404
6.14500000000000	0.78113826983151	20.70948690025253	3.81671717171717
6.15500000000000	0.78199589131452	20.82927919823232	3.83335353535354
6.16500000000000	0.78378863869223	20.94973658459596	3.85463636363636
6.17500000000000	0.78602938482542	21.07093055555556	3.87820707070707
6.18500000000000	0.78674963989065	21.19262878787879	3.89434343434343
6.19500000000000	0.78942605448738	21.31513620580808	3.92023737373737
6.20500000000000	0.78845494176905	21.43788825757576	3.92806565656566
6.21500000000000	0.79074988614385	21.56139472853535	3.95220707070707
6.22500000000000	0.79164307040106	21.68543892045455	3.96941414141414
6.23500000000000	0.79214694033406	21.80996117424242	3.98471212121212
6.24500000000000	0.79572702142244	21.93544775883839	4.01557070707071
6.25500000000000	0.79501139328054	22.06122332702020	4.02481818181818
6.26500000000000	0.79645518421339	22.18763052398990	4.04503030303030
6.27500000000000	0.79678147353894	22.31449352904040	4.05961616161616
6.28500000000000	0.79824885280311	22.44199558080808	4.08006565656566
6.29500000000000	0.79772210994432	22.56981928661616	4.09035858585859
6.30500000000000	0.79889231347959	22.69823753156566	4.10938383838384
6.31500000000000	0.80005404621668	22.82725078914142	4.12842424242424
6.32500000000000	0.80035562566481	22.95672174873738	4.14307070707071
6.33500000000000	0.80246808619907	23.08694523358586	4.16715151515152
6.34500000000000	0.80116318462267	23.21736773989899	4.17352020202020
6.35500000000000	0.80415361352869	23.34869002525253	4.20231313131313
6.36500000000000	0.80561932337826	23.48066603535354	4.22323232323232
6.37500000000000	0.80454409037603	23.61288036616162	4.23085858585859
6.38500000000000	0.80592450205020	23.74573737373737	4.25142424242424
6.39500000000000	0.80839946832138	23.87942013888889	4.27784848484848
6.40500000000000	0.80730716709967	24.01334011994950	4.28543939393939
6.41500000000000	0.81089748942470	24.14827604166667	4.31794949494950
6.42500000000000	0.80959876136632	24.28341619318182	4.32448484848485
6.43500000000000	0.81036372645176	24.41910542929293	4.34205555555556
6.44500000000000	0.81246658207550	24.55556991792929	4.36686363636364
6.45500000000000	0.81154181039952	24.69230239898990	4.37543939393939
6.46500000000000	0.81468393929043	24.82998989898990	4.40600000000000
6.47500000000000	0.81372514020773	24.96794113005051	4.41443939393939
6.48500000000000	0.81506821747879	25.10654719065657	4.43539393939394
6.49500000000000	0.81506311346750	25.24558017676768	4.44905555555556
6.50500000000000	0.81609281713773	25.38521780303030	4.46840404040404
6.51500000000000	0.81942417747284	25.52585684974748	4.50044949494950
6.52500000000000	0.81857745965009	25.66678219696970	4.50961111111111
6.53500000000000	0.81934704350729	25.80827272727273	4.52769696969697
6.54500000000000	0.81910673499706	25.95015498737374	4.54023232323232
6.55500000000000	0.82092339245081	26.09278677398990	4.56421717171717
6.56500000000000	0.81931280402472	26.23557339015152	4.56917171717172
6.57500000000000	0.82418720059798	26.37964741161616	4.61036868686869
6.58500000000000	0.82387048985255	26.52410448232323	4.62262626262626
6.59500000000000	0.82364254626159	26.66896054292929	4.63539393939394
6.60500000000000	0.82497611711011	26.81449147727273	4.65698989898990
6.61500000000000	0.82306977721401	26.96012610479798	4.66030808080808
6.62500000000000	0.82513208943504	27.10656739267677	4.68612121212121
6.63500000000000	0.82648136008976	27.25369128787879	4.70796464646465
6.64500000000000	0.82677483527297	27.40131139520202	4.72384343434343
6.65500000000000	0.82714918235558	27.54944318181818	4.74021717171717
6.66500000000000	0.82824684216286	27.69821764520202	4.76078282828283
6.67500000000000	0.82850287334898	27.84748500631313	4.77655555555556
6.68500000000000	0.82993974564450	27.99745959595960	4.79918686868687
6.69500000000000	0.83061807246928	28.14800615530303	4.81748989898990
6.70500000000000	0.82977278909877	28.29884911616162	4.82697474747475
6.71500000000000	0.82960749474398	28.45011221590909	4.84041919191919
6.72500000000000	0.83184481155113	28.60223532196970	4.86793939393939
6.73500000000000	0.83108706756252	28.75467219065657	4.87797979797980
6.74500000000000	0.83534305098107	28.90834501262626	4.91753030303030
6.75500000000000	0.83591767908702	29.06257986111111	4.93551515151515
6.76500000000000	0.83615605511676	29.21731581439394	4.95155050505051
6.77500000000000	0.83522100100702	29.37233601641414	4.96064646464646
6.78500000000000	0.83790642826244	29.52831407828283	4.99129797979798
6.79500000000000	0.83796199386475	29.68476262626263	5.00635353535354
6.80500000000000	0.83839459121517	29.84175299873737	5.02369191919192
6.81500000000000	0.84050688051720	29.99960179924242	5.05116161616162
6.82500000000000	0.83954473035623	30.15773295454546	5.06019696969697
6.83500000000000	0.84290240339827	30.31696212121212	5.09533333333333
6.84500000000000	0.84291802570532	30.47666051136364	5.11034848484849
6.85500000000000	0.84391508300699	30.63701530934344	5.13135353535354
6.86500000000000	0.84501787776519	30.79804845328283	5.15306060606061
6.87500000000000	0.84533031570914	30.95961079545455	5.16999494949495
6.88500000000000	0.84721582432416	31.12200489267677	5.19661111111111
6.89500000000000	0.84771986600732	31.28496796085859	5.21481818181818
6.90500000000000	0.84836560865564	31.44852856691919	5.23393939393939
6.91500000000000	0.84990278285208	31.61286047979798	5.25862121212121
6.92500000000000	0.85189961480254	31.77805523989899	5.28623232323232
6.93500000000000	0.85183950436625	31.94371575126263	5.30113636363636
6.94500000000000	0.85141771850765	32.10977209595960	5.31380303030303
6.95500000000000	0.85390776082928	32.27679403409091	5.34470202020202
6.96500000000000	0.85501541931103	32.44451388888889	5.36703535353535
6.97500000000000	0.85704146237866	32.61311426767677	5.39521212121212
6.98500000000000	0.85720443329950	32.78223058712121	5.41172222222222
6.99500000000000	0.85847177669176	32.95208222853535	5.43525252525253
7.00500000000000	0.86050791300084	33.12282386363636	5.46373232323232
7.01500000000000	0.86149309051852	33.29424936868687	5.48561616161616
7.02500000000000	0.86372750374982	33.46660984848485	5.51553535353535
7.03500000000000	0.86319648063716	33.63935511363636	5.52784848484849
7.04500000000000	0.86428422867146	33.81281013257576	5.55056060606061
7.05500000000000	0.86681231664406	33.98726672979798	5.58261111111111
7.06500000000000	0.86699235638749	34.16225457702021	5.59961111111111
7.07500000000000	0.86946198376229	34.33823800505051	5.63146969696970
7.08500000000000	0.87284341424007	34.51540561868687	5.66936363636364
7.09500000000000	0.87351876742093	34.69321117424243	5.68977777777778
7.10500000000000	0.87344923613019	34.87150410353536	5.70537373737374
7.11500000000000	0.87592410089543	35.05080587121212	5.73765656565657
7.12500000000000	0.87798029583551	35.23103409090909	5.76730303030303
7.13500000000000	0.87944266762601	35.41206960227273	5.79313636363636
7.14500000000000	0.87985590957289	35.59369823232323	5.81211616161616
7.15500000000000	0.88276034987354	35.77643686868687	5.84763636363636
7.16500000000000	0.88454804834433	35.96005776515152	5.87586868686869
7.17500000000000	0.88586896594781	36.14446654040404	5.90108080808081
7.18500000000000	0.88587488430436	36.32939094065657	5.91758080808081
7.19500000000000	0.88831342935676	36.51534090909091	5.95039898989899
7.20500000000000	0.89158766475646	36.70249542297980	5.98894444444444
7.21500000000000	0.89161771863607	36.89017613636364	6.00578282828283
7.22500000000000	0.89398531151565	37.07887720959596	6.03843434343434
7.23500000000000	0.89609333270394	37.26854719065657	6.06943939393939
7.24500000000000	0.89727614992318	37.45899289772727	6.09426262626263
7.25500000000000	0.90028957781958	37.65060606060606	6.13162121212121
7.26500000000000	0.90255386663461	37.84323106060607	6.16400000000000
7.27500000000000	0.90411350541362	38.03672048611111	6.19166161616162
7.28500000000000	0.90442414611156	38.23080886994950	6.21082828282828
7.29500000000000	0.90583571783115	38.42573421717172	6.23761111111111
7.30500000000000	0.90719302109140	38.62148721590909	6.26409595959596
7.31500000000000	0.90920403894135	38.81821164772727	6.29518181818182
7.32500000000000	0.91077587209988	39.01581534090909	6.32331818181818
7.33500000000000	0.91180399395536	39.21418260732323	6.34775252525253
7.34500000000000	0.91378249282356	39.41352272727273	6.37888383838384
7.35500000000000	0.91459314995296	39.61358333333334	6.40193939393939
7.36500000000000	0.91618972016779	39.81453851010101	6.43056565656566
7.37500000000000	0.91802831012550	40.01644412878788	6.46097979797980
7.38500000000000	0.92032808071586	40.21940482954545	6.49474242424242
7.39500000000000	0.91997050997357	40.42283648989899	6.50981313131313
7.40500000000000	0.92316844639105	40.62752777777778	6.55012121212121
7.41500000000000	0.92392363441970	40.83294018308081	6.57319696969697
7.42500000000000	0.92391669653392	41.03890546085859	6.59088888888889
7.43500000000000	0.92526212896910	41.24572664141414	6.61827777777778
7.44500000000000	0.92726175507462	41.45355271464646	6.65043434343434
7.45500000000000	0.92884491308302	41.66229324494950	6.67969696969697
7.46500000000000	0.92983842140415	41.87181802398990	6.70479292929293
7.47500000000000	0.93080513000112	42.08212294823232	6.72975757575758
7.48500000000000	0.93185044150228	42.29322774621212	6.75535353535354
7.49500000000000	0.93299734069398	42.50515751262626	6.78175252525253
7.50500000000000	0.93498371207220	42.71810558712122	6.81433838383838
7.51500000000000	0.93503418617125	42.93163304924243	6.83287878787879
7.52500000000000	0.93721100359850	43.14622758838384	6.86702525252525
7.53500000000000	0.93847515102642	43.36168308080808	6.89457575757576
7.54500000000000	0.93960657821234	43.57797127525253	6.92122222222222
7.55500000000000	0.94020696897204	43.79497174873737	6.94401515151515
7.56500000000000	0.94045580022767	44.01260464015152	6.96425252525253
7.57500000000000	0.94262371179719	44.23131628787879	6.99877272727273
7.58500000000000	0.94315140941300	44.45072853535353	7.02119191919192
7.59500000000000	0.94399243797080	44.67091587752525	7.04599494949495
7.60500000000000	0.94671473682176	44.89232007575757	7.08493434343434
7.61500000000000	0.94675470419009	45.11431628787879	7.10387878787879
7.62500000000000	0.94818018973235	45.33723106060607	7.13327272727273
7.63500000000000	0.94841249636952	45.56078566919192	7.15374747474748
7.64500000000000	0.94996864426558	45.78529403409091	7.18426767676768
7.65500000000000	0.94999343535016	46.01039599116162	7.20326262626263
7.66500000000000	0.95003545796200	46.23609643308081	7.22241414141414
7.67500000000000	0.95313199406047	46.46312373737374	7.26487373737374
7.68500000000000	0.95255448752411	46.69060511363637	7.27940404040404
7.69500000000000	0.95349747343878	46.91890467171717	7.30558585858586
7.70500000000000	0.95609968403108	47.14842266414141	7.34457575757576
7.71500000000000	0.95527591332845	47.37833854166666	7.35730808080808
7.72500000000000	0.95730622381232	47.60934075126263	7.39207070707071
7.73500000000000	0.95769517803646	47.84103551136364	7.41423232323232
7.74500000000000	0.95719334470656	48.07320801767677	7.42952020202020
7.75500000000000	0.95920324001776	48.30646922348485	7.46435858585859
7.76500000000000	0.95883875789357	48.54024352904040	7.48077777777778
7.77500000000000	0.95995093237171	48.77489220328283	7.50875757575758
7.78500000000000	0.96047074983616	49.01027225378788	7.53216161616162
7.79500000000000	0.96077404495591	49.24633191287879	7.55390909090909
7.80500000000000	0.96115080167361	49.48309043560607	7.57627272727273
7.81500000000000	0.96113200408726	49.72045138888889	7.59555050505051
7.82500000000000	0.96416228591286	49.95917045454546	7.63901010101010
7.83500000000000	0.96482396137794	50.19866429924242	7.66380303030303
7.84500000000000	0.96444664388547	50.43867597853536	7.68037373737374
7.85500000000000	0.96269539300128	50.67886300505051	7.68598484848485
7.86500000000000	0.96523368260135	50.92029687500000	7.72588383838384
7.87500000000000	0.96611140341545	51.16256518308081	7.75258585858586
7.88500000000000	0.96677063261802	51.40561489898990	7.77759090909091
7.89500000000000	0.96661437505841	51.64924210858586	7.79607070707071
7.90500000000000	0.96857076180610	51.89398121843435	7.83165151515152
7.91500000000000	0.96707501069904	52.13896101641414	7.83935353535354
7.92500000000000	0.96719953401059	52.38459185606061	7.86018686868687
7.93500000000000	0.96859239608769	52.63119760101010	7.89138383838384
7.94500000000000	0.97025714952378	52.87885022095960	7.92488383838384
7.95500000000000	0.96887279334684	53.12677241161617	7.93351010101010
7.96500000000000	0.97059313895452	53.37575962752526	7.96759090909091
7.97500000000000	0.97033122813785	53.62530508207071	7.98545454545455
7.98500000000000	0.97054629507584	53.87553219696970	8.00726767676768
7.99500000000000	0.97056368022944	54.12639094065657	8.02747979797980
8.00500000000000	0.97222314852743	54.37830760732324	8.06133333333333
8.01500000000000	0.97058791054777	54.63042929292929	8.06789393939394
8.02500000000000	0.97173059272703	54.88347806186869	8.09756060606061
8.03500000000000	0.97242324892452	55.13733869949495	8.12354040404040
8.04500000000000	0.97245091307971	55.39183885732324	8.14400505050505
8.05500000000000	0.97237678515663	55.64695265151515	8.16364141414141
8.06500000000000	0.97220162171777	55.90265419823233	8.18244949494949
8.07500000000000	0.97509093391556	56.15975205176768	8.22713131313131
8.08500000000000	0.97523358225774	56.41752477904041	8.24872727272727
8.09500000000000	0.97382984605834	56.67556360479798	8.25724242424242
8.10500000000000	0.97567066589306	56.93472932449495	8.29330303030303
8.11500000000000	0.97497571682992	57.19434990530304	8.30785858585859
8.12500000000000	0.97553526847411	57.45476010101010	8.33312626262626
8.13500000000000	0.97624306059243	57.71600110479798	8.35971212121212
8.14500000000000	0.97671027535124	57.97801010101011	8.38428787878788
8.15500000000000	0.97708246731717	58.24076294191919	8.40809090909091
8.16500000000000	0.97686326662527	58.50410148358586	8.42683333333333
8.17500000000000	0.97805091320941	58.76840640782829	8.45775757575758
8.18500000000000	0.97920595598376	59.03367124368687	8.48847474747475
8.19500000000000	0.97966955266381	59.29971054292930	8.51325757575758
8.20500000000000	0.97882464770954	59.56616950757576	8.52668686868687
8.21500000000000	0.97977156655844	59.83353677398990	8.55575252525253
8.22500000000000	0.98192260270447	60.10214378156566	8.59542424242424
8.23500000000000	0.98327294358369	60.37177462121213	8.62818686868687
8.24500000000000	0.98221269860526	60.64176925505051	8.63982828282828
8.25500000000000	0.98248525344498	60.91249431818182	8.66320202020202
8.26500000000000	0.98167369160721	61.18365151515152	8.67703030303030
8.27500000000000	0.98304630943341	61.45584532828283	8.71020202020202
8.28500000000000	0.98400400911048	61.72896322601010	8.73977272727273
8.29500000000000	0.98455601796504	62.00289441287879	8.76579797979798
8.30500000000000	0.98359383538498	62.27721811868687	8.77835858585859
8.31500000000000	0.98507787385997	62.55261773989899	8.81278787878788
8.32500000000000	0.98552019988433	62.82880413510101	8.83796464646465
8.33500000000000	0.98646883435955	63.10592092803031	8.86773737373737
8.34500000000000	0.98730976732365	63.38393986742425	8.89660606060606
8.35500000000000	0.98669678574341	63.66245249368687	8.91240404040404
8.36500000000000	0.98795424156755	63.94198800505050	8.94513636363636
8.37500000000000	0.98685900215261	64.22188162878788	8.95659595959596
8.38500000000000	0.98986984364961	64.50330003156566	9.00538888888889
8.39500000000000	0.99018966410318	64.78548121843434	9.02979797979798
8.40500000000000	0.99061511073994	65.06845659722222	9.05521212121212
8.41500000000000	0.99105503154620	65.35223169191920	9.08080303030303
8.42500000000000	0.99189479362615	65.63692266414142	9.11011111111111
8.43500000000000	0.99351775682266	65.92275678661616	9.14669191919192
8.44500000000000	0.99317916804513	66.20917140151515	9.16526767676768
8.45500000000000	0.99484484334119	66.49674621212121	9.20239393939394
8.46500000000000	0.99504333487665	66.78505918560606	9.22601515151515
8.47500000000000	0.99533104511730	67.07413731060606	9.25050000000000
8.48500000000000	0.99490551419575	67.36377414772727	9.26837878787879
8.49500000000000	0.99686066093848	67.65466461489899	9.30849494949495
8.50500000000000	0.99804465678940	67.94658664772727	9.34150505050505
8.51500000000000	0.99899909125328	68.23947537878789	9.37243939393939
8.52500000000000	0.99869708759624	68.53296369949496	9.39162626262626
8.53500000000000	1.00040410882068	68.82764378156565	9.42976262626263
8.54500000000000	1.00230460849310	69.12357591540405	9.46982828282828
8.55500000000000	1.00258664230292	69.42028456439394	9.49467676767677
8.56500000000000	1.00308862503434	69.71783617424242	9.52165151515151
8.57500000000000	1.00347566052867	70.01619807449495	9.54758080808081
8.58500000000000	1.00478335738028	70.31564599116162	9.58233333333333
8.59500000000000	1.00383886511935	70.61550978535354	9.59564141414142
8.60500000000000	1.00565344532316	70.91661505681819	9.63536868686869
8.61500000000000	1.00806747398639	71.21914504419192	9.68095959595960
8.62500000000000	1.00898904858662	71.52265498737374	9.71231818181818
8.63500000000000	1.01008948460176	71.82720091540405	9.74546969696970
8.64500000000000	1.01142863836619	72.13285732323233	9.78100505050505
8.65500000000000	1.01112123827434	72.43912815656566	9.80066666666667
8.66500000000000	1.01230713573297	72.74646717171717	9.83484848484849
8.67500000000000	1.01294444376026	73.05470991161616	9.86376767676768
8.68500000000000	1.01429695615083	73.36407623106061	9.89972222222222
8.69500000000000	1.01639793943154	73.67479766414142	9.94308585858586
8.70500000000000	1.01691610247405	73.98639299242424	9.97105050505050
8.71500000000000	1.01834858598303	74.29914457070707	10.00805050505051
8.72500000000000	1.01965595814684	74.61301672979798	10.04390909090909
8.73500000000000	1.02000779274426	74.92771732954546	10.07041919191919
8.74500000000000	1.01974136051955	75.24305650252525	10.09085353535353
8.75500000000000	1.02146605584032	75.55965183080808	10.13105050505050
8.76500000000000	1.02297802329680	75.87744049873737	10.16923737373737
8.77500000000000	1.02277827907881	76.19589251893940	10.19046464646465
8.78500000000000	1.02406419377889	76.51547206439395	10.22654545454546
8.79500000000000	1.02595218161431	76.83637010732323	10.26873737373737
8.80500000000000	1.02750523616982	77.15848516414141	10.30768181818182
8.81500000000000	1.02752258856183	77.48133775252525	10.33128282828283
8.82500000000000	1.02876860425588	77.80531565656565	10.36729292929293
8.83500000000000	1.02931729604816	78.13020138888889	10.39634343434343
8.84500000000000	1.02993471635810	78.45601830808081	10.42614141414141
8.85500000000000	1.03131778854316	78.78301089015152	10.46376262626263
8.86500000000000	1.03122089595880	79.11071164772727	10.48642424242424
8.87500000000000	1.03166394329643	79.43929324494950	10.51461111111111
8.88500000000000	1.03383930476707	79.76931013257575	10.56054040404040
8.89500000000000	1.03422437285534	80.10019349747475	10.58826767676768
8.90500000000000	1.03513373625620	80.43211284722223	10.62141919191919
8.91500000000000	1.03479146942970	80.76466808712121	10.64176767676768
8.92500000000000	1.03583827962802	81.09830697601011	10.67644444444444
8.93500000000000	1.03704990950325	81.43308506944445	10.71289898989899
8.94500000000000	1.03729058667182	81.76869081439395	10.73938383838384
8.95500000000000	1.03784251530312	82.10522632575758	10.76913636363636
8.96500000000000	1.03810918619952	82.44260053661617	10.79597474747475
8.97500000000000	1.03778432097137	82.78062200126263	10.81668686868687
8.98500000000000	1.03941063016075	83.11992803030303	10.85779292929293
8.99500000000000	1.03913996708514	83.45990119949495	10.87914141414142
9.00500000000000	1.04056128516494	83.80109674873738	10.91825757575758
9.01500000000000	1.04171343690716	84.14342913510102	10.95463636363636
9.02500000000000	1.04134124326225	84.48639883207071	10.97503030303030
9.03500000000000	1.04153331247269	84.83019239267676	11.00139393939394
9.04500000000000	1.04236796561208	85.17502351641414	11.03459595959596
9.05500000000000	1.04261658153858	85.52069996843434	11.06164646464646
9.06500000000000	1.04397920649987	85.86759311868687	11.10058080808081
9.07500000000000	1.04325838768577	86.21501199494949	11.11740404040404
9.08500000000000	1.04304468393627	86.56312563131313	11.13963636363636
9.09500000000000	1.04478383226082	86.91258775252525	11.18278787878788
9.10500000000000	1.04571054746051	87.26312941919193	11.21733333333333
9.11500000000000	1.04484689268411	87.61415135732324	11.23270202020202
9.12500000000000	1.04637284371949	87.96645770202021	11.27380303030303
9.13500000000000	1.04606638309957	88.31943323863636	11.29521717171717
9.14500000000000	1.04708282235436	88.67352572601010	11.33095959595960
9.15500000000000	1.04789440724964	89.02866808712122	11.36455555555556
9.16500000000000	1.04901036339927	89.38496575126263	11.40152525252525
9.17500000000000	1.04888747280149	89.74199952651516	11.42508080808081
9.18500000000000	1.05027181429159	90.10028424873738	11.46511111111111
9.19500000000000	1.04954206879881	90.45910006313132	11.48210606060606
9.20500000000000	1.05062704460583	90.81906849747475	11.51898989898990
9.21500000000000	1.04940843725612	91.17940104166667	11.53064141414141
9.22500000000000	1.05108261163303	91.54109217171718	11.57411616161616
9.23500000000000	1.05243998783541	91.90403598484849	11.61420202020202
9.24500000000000	1.05181530584484	92.26755034722223	11.63245959595960
9.25500000000000	1.05387302057586	92.63256423611111	11.68044444444445
9.26500000000000	1.05405058532415	92.99842897727272	11.70767171717172
9.27500000000000	1.05335197564857	93.36484090909092	11.72518181818182
9.28500000000000	1.05450202994982	93.73244428661617	11.76330808080808
9.29500000000000	1.05575854552780	94.10127888257576	11.80270707070707
9.30500000000000	1.05429025567225	94.47039346590910	11.81166666666667
9.31500000000000	1.05648297245475	94.84107118055556	11.86168686868687
9.32500000000000	1.05662734835453	95.21259595959596	11.88879292929293
9.33500000000000	1.05694067752881	95.58502840909091	11.91783838383838
9.34500000000000	1.05752914255269	95.95846701388889	11.95003535353535
9.35500000000000	1.05729740036282	96.33262326388889	11.97300000000000
9.36500000000000	1.05844475618075	96.70798674242424	12.01163131313131
9.37500000000000	1.05858293926506	97.08420138888889	12.03886868686869
9.38500000000000	1.05921489831323	97.46144412878789	12.07176767676768
9.39500000000000	1.05829626536457	97.83916335227273	12.08701515151515
9.40500000000000	1.06028928167507	98.21839993686869	12.13557070707071
9.41500000000000	1.05977346869524	98.59825852272728	12.15547474747475
9.42500000000000	1.06120704646160	98.97943939393940	12.19778787878788
9.43500000000000	1.06041003920435	99.36114267676768	12.21450505050505
9.44500000000000	1.06115852437106	99.74392550505051	12.24905050505050
9.45500000000000	1.06189143031176	100.12778424873737	12.28347979797980
9.46500000000000	1.06247030201764	100.51266508838384	12.31618686868687
9.47500000000000	1.06367608429913	100.89879734848485	12.35623232323232
9.48500000000000	1.06379065924917	101.28578677398990	12.38366161616162
9.49500000000000	1.06331186341709	101.67341808712122	12.40420202020202
9.50500000000000	1.06379312571307	102.06204214015152	12.43596969696970
9.51500000000000	1.06355608088286	102.45139756944445	12.45937373737374
9.52500000000000	1.06518783508691	102.84217045454545	12.50473232323232
9.53500000000000	1.06455393285046	103.23353125000000	12.52354545454545
9.54500000000000	1.06532040773837	103.62599573863636	12.55886363636364
9.55500000000000	1.06487531310932	104.01911868686869	12.57993434343434
9.56500000000000	1.06498905580518	104.41310700757576	12.60762626262626
9.57500000000000	1.06586078841764	104.80824273989899	12.64434343434344
9.58500000000000	1.06551362902405	105.20407528409092	12.66664141414141
9.59500000000000	1.06648920905683	105.60109738005050	12.70470707070707
9.60500000000000	1.06724560958212	105.99922964015151	12.74023232323232
9.61500000000000	1.06722942078067	106.39818529040404	12.76658080808081
9.62500000000000	1.06769762315955	106.79814662247475	12.79876262626263
9.63500000000000	1.06830747929033	107.19916840277779	12.83269696969697
9.64500000000000	1.06646889311311	107.60033143939394	12.83721717171717
9.65500000000000	1.06627319795474	108.00225299873738	12.86148989898990
9.66500000000000	1.06815354303520	108.40571780303031	12.91087373737374
9.67500000000000	1.06748610306604	108.80976530934343	12.92952020202020
9.68500000000000	1.06791186868000	109.21480997474748	12.96142929292929
9.69500000000000	1.06907484769820	109.62113352272728	13.00235353535354
9.70500000000000	1.07073012683984	110.02892613636364	13.04936363636364
9.71500000000000	1.06860141871329	110.43674715909091	13.05027272727273
9.72500000000000	1.06971272342652	110.84583317550505	13.09075252525253
9.73500000000000	1.06943461085406	111.25565435606060	13.11427777777778
9.74500000000000	1.07043568403273	111.66670233585859	13.15353535353535
9.75500000000000	1.07087216782178	112.07876231060607	13.18591919191919
9.76500000000000	1.07143724188535	112.49188541666668	13.21993939393939
9.77500000000000	1.07064565639534	112.90554924242424	13.23724242424242
9.78500000000000	1.07266015500448	113.32083980429293	13.28929797979798
9.79500000000000	1.07184205386363	113.73666224747475	13.30631818181818
9.80500000000000	1.07300956375426	114.15378803661616	13.34802525252525
9.81500000000000	1.07260208957978	114.57160637626264	13.37018686868687
9.82500000000000	1.07244393519959	114.99021480429293	13.39546969696970
9.83500000000000	1.07253721459241	115.40971227904041	13.42391919191919
9.84500000000000	1.07391776075140	115.83060432449496	13.46854545454545
9.85500000000000	1.07412462517960	116.25243308080809	13.49852020202020
9.86500000000000	1.07518914485166	116.67553724747475	13.53933333333333
9.87500000000000	1.07461409027738	117.09927288510102	13.55954040404040
9.88500000000000	1.07463833691037	117.52387673611112	13.58732323232323
9.89500000000000	1.07418670169445	117.94916130050505	13.60910606060606
9.90500000000000	1.07460994505944	118.37547380050505	13.64200000000000
9.91500000000000	1.07427373473854	118.80251388888890	13.66528282828283
9.92500000000000	1.07527637582185	119.23081518308081	13.70564141414141
9.93500000000000	1.07422521593099	119.65956044823233	13.71984848484849
9.94500000000000	1.07509566245084	120.08951736111112	13.75862121212121
9.95500000000000	1.07434604223418	120.52003898358586	13.77669191919192
9.96500000000000	1.07745478278827	120.95267424242425	13.84432828282828
9.97500000000000	1.07563055844843	121.38544428661616	13.84864141414142
9.98500000000000	1.07649357348082	121.81943039772727	13.88755555555556
9.99500000000000	1.07780459364961	122.25481581439395	13.93233333333333
10.00500000000000	1.07636548339600	122.69049037247476	13.94158585858586
10.01500000000000	1.07660213739260	123.12713226010102	13.97254040404041
10.02500000000000	1.07645044065696	123.56458491161617	13.99848484848485
10.03500000000000	1.07804256507725	124.00355902777778	14.04717171717172
10.04500000000000	1.07710758890484	124.44302698863636	14.06297474747475
10.05500000000000	1.07729685410671	124.88344775883839	14.09346464646465
10.06500000000000	1.07754874052467	125.32484816919192	14.12481313131313
10.07500000000000	1.07595139219693	125.76647048611112	14.13191414141414
10.08500000000000	1.07702772307498	126.20941256313132	14.17414646464647
10.09500000000000	1.07707352549351	126.65325236742424	14.20287373737374
10.10500000000000	1.07668471595755	127.09781139520203	14.22588888888889
10.11500000000000	1.07736694725107	127.54353298611112	14.26309090909091
10.12500000000000	1.07820124827585	127.99048216540405	14.30237373737374
10.13500000000000	1.07787955893402	128.43818102904041	14.32636363636364
10.14500000000000	1.07849224439865	128.88701878156567	14.36280808080808
10.15500000000000	1.07755201641425	129.33634974747474	14.37859090909091
10.16500000000000	1.07735982837905	129.78648579545455	14.40435353535354
10.17500000000000	1.07813597217312	130.23783285984848	14.44310606060606
10.18500000000000	1.07751744326408	130.68980808080809	14.46320707070707
10.19500000000000	1.07723048092280	131.14255066287879	14.48776262626263
10.20500000000000	1.07725290145882	131.59619128787878	14.51650000000000
10.21500000000000	1.07822477502445	132.05113147095960	14.55808585858586
10.22500000000000	1.07730660402415	132.50657465277777	14.57418181818182
10.23500000000000	1.07666344823204	132.96263667929293	14.59398484848485
10.24500000000000	1.07654880675893	133.41954166666667	14.62095959595960
10.25500000000000	1.07746472280272	133.87772853535353	14.66197979797980
10.26500000000000	1.07637066591427	134.33634327651515	14.67567171717172
10.27500000000000	1.07719980148249	134.79620596590908	14.71560606060606
10.28500000000000	1.07651711563698	135.25667219065656	14.73491919191919
10.29500000000000	1.07665370786811	135.71809280303032	14.76545959595960
10.30500000000000	1.07630955555077	136.18026246843434	14.78942929292929
10.31500000000000	1.07594380341064	136.64317219065657	14.81311111111111
10.32500000000000	1.07637158637220	137.10716429924244	14.84774747474748
10.33500000000000	1.07704309104350	137.57234564393940	14.88580303030303
10.34500000000000	1.07615301359002	138.03804245580810	14.90229797979798
10.35500000000000	1.07502229544872	138.50414977904040	14.91543434343434
10.36500000000000	1.07637134983456	138.97174384469699	14.96301010101010
10.37500000000000	1.07469230007215	139.43950978535355	14.96851010101010
10.38500000000000	1.07516856429791	139.90838557449496	15.00402525252525
10.39500000000000	1.07452629344200	140.37788415404040	15.02395454545455
10.40500000000000	1.07469135371593	140.84835874368687	15.05518686868687
10.41500000000000	1.07457169200932	141.31968560606060	15.08245959595960
10.42500000000000	1.07449612236144	141.79188478535355	15.11037373737374
10.43500000000000	1.07334709542545	142.26448437499999	15.12318686868687
10.44500000000000	1.07395605720191	142.73825883838384	15.16078282828283
10.45500000000000	1.07412579991561	143.21301594065656	15.19222727272727
10.46500000000000	1.07441767298667	143.68881092171716	15.22543939393939
10.47500000000000	1.07387373322342	144.16527430555556	15.24682828282828
10.48500000000000	1.07285309156203	144.64219412878788	15.26143434343434
10.49500000000000	1.07314943930355	145.12015609217173	15.29478282828283
10.50500000000000	1.07229231479470	145.59796354166667	15.28983838383838
10.51500000000000	1.07195146027326	146.07516224747476	15.27035858585859
10.52500000000000	1.07173486289270	146.55180602904042	15.25260101010101
10.53500000000000	1.07176685111186	147.02800378787879	15.23832828282828
10.54500000000000	1.07080473499321	147.50331249999999	15.20987878787879
10.55500000000000	1.06996067799075	147.97778361742425	15.18307575757576
10.56500000000000	1.07026888645786	148.45192660984850	15.17257575757576
10.57500000000000	1.07008342537904	148.92552099116162	15.15502020202020
10.58500000000000	1.07078000305463	149.39895517676769	15.14989393939394
10.59500000000000	1.06848397153952	149.87090498737373	15.10239393939394
10.60500000000000	1.06772922228201	150.34205082070707	15.07666666666667
10.61500000000000	1.06794822926091	150.81282086489898	15.06464141414141
10.62500000000000	1.06757845316458	151.28295391414142	15.04425757575758
10.63500000000000	1.06706870931667	151.75238699494949	15.02185858585859
10.64500000000000	1.06667498135240	152.22116982323232	15.00105050505051
10.65500000000000	1.06581272626672	152.68909532828283	14.97361616161616
10.66500000000000	1.06646405016001	153.15682638888890	14.96739393939394
10.67500000000000	1.06545313720805	153.62363241792929	14.93779292929293
10.68500000000000	1.06466584214435	154.08961047979798	14.91129797979798
10.69500000000000	1.06458404043031	154.55506802398992	14.89464141414141
10.70500000000000	1.06403841179285	155.01980082070708	14.87144949494949
10.71500000000000	1.06472766494645	155.48434643308082	14.86545959595960
10.72500000000000	1.06313444394309	155.94770770202021	14.82756060606061
10.73500000000000	1.06275691459957	156.41041366792930	14.80659090909091
10.74500000000000	1.06286372791366	156.87267361111111	14.79231818181818
10.75500000000000	1.06298199203182	157.33449068813132	14.77814646464646
10.76500000000000	1.06254696559456	157.79562294823234	14.75623232323232
10.77500000000000	1.06051672968668	158.25537752525253	14.71214646464647
10.78500000000000	1.06170786370741	158.71514962121213	14.71270707070707
10.79500000000000	1.06167089014067	159.17440514520203	14.69617676767677
10.80500000000000	1.06108481442808	159.63290514520202	14.67200000000000
10.81500000000000	1.05988529718176	160.09038368055556	14.63931313131313
10.82500000000000	1.06020918840495	160.54749700126263	14.62762626262626
10.83500000000000	1.06050259823014	161.00422995580809	14.61545454545455
10.84500000000000	1.06052732651506	161.46046496212122	14.59952020202020
10.85500000000000	1.06038715042599	161.91612941919192	14.58126262626263
10.86500000000000	1.05950827116039	162.37090467171717	14.55280808080808
10.87500000000000	1.05977771431462	162.82528219696971	14.54008080808081
10.88500000000000	1.05798430520485	163.27837657828283	14.49902020202020
10.89500000000000	1.05960805018687	163.73164962121211	14.50473737373737
10.90500000000000	1.05803630083867	164.18373263888890	14.46665656565657
10.91500000000000	1.05745527485416	164.63504829545454	14.44210101010101
10.92500000000000	1.05800648273489	165.08607812500000	14.43295454545455
10.93500000000000	1.05824459277835	165.53668655303031	14.41946969696970
10.94500000000000	1.05771727280872	165.98654608585858	14.39550505050505
10.95500000000000	1.05709020691916	166.43561316287878	14.37014646464647
10.96500000000000	1.05804950320710	166.88455981691919	14.36629292929293
10.97500000000000	1.05705516289151	167.33255539772728	14.33585858585859
10.98500000000000	1.05650469538597	167.77978708964648	14.31141414141414
10.99500000000000	1.05787489963953	168.22706581439394	14.31291919191919
11.00500000000000	1.05650923674407	168.67323311237374	14.27735353535354
11.01500000000000	1.05815426195777	169.11955855429292	14.28241414141414
11.02500000000000	1.05669673663167	169.56473169191921	14.24554040404040
11.03500000000000	1.05682673885188	170.00942029671717	14.23003535353535
11.04500000000000	1.05591560894475	170.45318497474747	14.20046969696970
11.05500000000000	1.05641107238161	170.89661537247474	14.18977272727273
11.06500000000000	1.05792677931613	171.34013699494949	14.19269191919192
11.07500000000000	1.05811069718205	171.78318892045456	14.17766161616162
11.08500000000000	1.05640047454666	172.22497711489899	14.13722222222222
11.09500000000000	1.05738919929923	172.66662894570709	14.13285858585859
11.10500000000000	1.05821877967501	173.10807528409092	14.12628282828283
11.11500000000000	1.05709455857538	173.54849952651514	14.09357575757576
11.12500000000000	1.05763633201066	173.98859438131313	14.08303535353535
11.13500000000000	1.05721858765688	174.42795880681820	14.05966161616162
11.14500000000000	1.05838615019598	174.86724952651517	14.05730303030303
11.15500000000000	1.05821375424864	175.30590814393940	14.03707575757576
11.16500000000000	1.05842551966923	175.74409217171717	14.02188888888889
11.17500000000000	1.05893169823050	176.18192140151515	14.01053535353535
11.18500000000000	1.05804289047678	176.61881755050504	13.98067676767677
11.19500000000000	1.05827077019077	177.05524037247474	13.96553030303030
11.20500000000000	1.05840414787047	177.49114898989899	13.94907575757576
11.21500000000000	1.05983324176270	177.92707449494949	13.94961616161616
11.22500000000000	1.05887887274233	178.36203456439395	13.91872222222222
11.23500000000000	1.05881526808960	178.79639393939394	13.89950000000000
11.24500000000000	1.05876145349144	179.23015498737374	13.88035353535354
11.25500000000000	1.05924942340513	179.66353772095960	13.86824747474748
11.26500000000000	1.05900781695595	180.09624179292931	13.84653030303030
11.27500000000000	1.06011308629935	180.52881534090909	13.84235353535353
11.28500000000000	1.05937921900077	180.96050599747474	13.81410101010101
11.29500000000000	1.06183872142489	181.39261237373739	13.82740404040404
11.30500000000000	1.06034312351069	181.82352272727275	13.78913131313131
11.31500000000000	1.06130745807103	182.25423532196970	13.78280303030303
11.32500000000000	1.06137635483758	182.68438446969697	13.76477272727273
11.33500000000000	1.06081597740340	183.11371369949495	13.73853535353535
11.34500000000000	1.06113655872414	183.54257796717172	13.72365656565657
11.35500000000000	1.06140518987957	183.97095422979800	13.70804040404041
11.36500000000000	1.06301850983718	184.39938241792930	13.70970202020202
11.37500000000000	1.06227985744479	184.82691240530303	13.68095959595960
11.38500000000000	1.06382817249009	185.25446243686869	13.68160101010101
11.39500000000000	1.06289264838428	185.68103219696971	13.65023232323232
11.40500000000000	1.06420276204566	186.10752099116164	13.64764141414141
11.41500000000000	1.06356752070423	186.53314709595961	13.62003535353535
11.42500000000000	1.06436488505201	186.95848200757575	13.61071717171717
11.43500000000000	1.06481961318575	187.38338636363636	13.59693939393939
11.44500000000000	1.06414913095819	187.80740956439394	13.56874242424242
11.45500000000000	1.06416567945498	188.23082402146466	13.54926262626263
11.46500000000000	1.06531042317802	188.65407623106060	13.54407070707071
11.47500000000000	1.06527334860751	189.07669428661617	13.52377777777778
11.48500000000000	1.06588276094030	189.49893260732324	13.51162626262626
11.49500000000000	1.06543538208523	189.92037073863636	13.48602020202020
11.50500000000000	1.06561361219023	190.34125457702021	13.46828282828283
11.51500000000000	1.06705534973619	190.76208049242425	13.46642929292929
11.52500000000000	1.06713827887263	191.18230997474748	13.44734343434343
11.53500000000000	1.06705966939690	191.60187768308080	13.42616666666667
11.54500000000000	1.06851081122214	192.02138257575757	13.42415656565657
11.55500000000000	1.06781196071328	192.43997837752525	13.39506565656566
11.56500000000000	1.06870570971888	192.85828756313131	13.38589393939394
11.57500000000000	1.06809140427576	193.27571796085860	13.35777272727273
11.58500000000000	1.06836055573903	193.69261332070707	13.34065151515152
11.59500000000000	1.06970520279992	194.10939062500000	13.33687373737374
11.60500000000000	1.06994640259794	194.52561726641414	13.31925252525253
11.61500000000000	1.07096120030475	194.94159169823234	13.31118181818182
11.62500000000000	1.07050345565125	195.35673989898990	13.28474242424242
11.63500000000000	1.07056315915462	195.77126104797981	13.26467676767677
11.64500000000000	1.06983877640221	196.18485022095959	13.23485353535354
11.65500000000000	1.07107646089815	196.59826388888891	13.22923737373737
11.66500000000000	1.07138796866930	197.01114188762628	13.21209595959596
11.67500000000000	1.07178496320016	197.42351499368687	13.19593939393939
11.68500000000000	1.07071602846163	197.83481786616161	13.16169191919192
11.69500000000000	1.07243748644005	198.24612026515152	13.16167676767677
11.70500000000000	1.07098198246785	198.65620186237373	13.12261111111111
11.71500000000000	1.07280232176993	199.06631502525252	13.12362121212121
11.72500000000000	1.07253198189034	199.47565782828283	13.09896969696970
11.73500000000000	1.07269650119079	199.88439457070709	13.07957575757576
11.74500000000000	1.07359466515763	200.29280239898989	13.06905050505051
11.75500000000000	1.07359108848100	200.70053598484850	13.04747474747475
11.76500000000000	1.07434051823200	201.10787910353537	13.03497979797980
11.77500000000000	1.07470050634811	201.51468166035355	13.01768181818182
11.78500000000000	1.07533108709680	201.92104371843436	13.00358585858586
11.79500000000000	1.07569771828850	202.32686316287879	12.98622222222222
11.80500000000000	1.07567628944136	202.73199163510102	12.96411111111111
11.81500000000000	1.07749085851159	203.13711773989900	12.96403535353535
11.82500000000000	1.07780712768157	203.54167503156566	12.94583333333333
11.83500000000000	1.07677329028015	203.94515546085859	12.91137373737374
11.84500000000000	1.07803454971296	204.34841714015153	12.90437373737374
11.85500000000000	1.07679556166489	204.75052304292930	12.86738888888889
11.86500000000000	1.07741220726039	205.15216477272728	12.85253535353535
11.87500000000000	1.07797969155231	205.55332149621213	12.83701515151515
11.88500000000000	1.07850116423432	205.95397364267677	12.82086868686869
11.89500000000000	1.07850738390083	206.35392771464646	12.79853030303030
11.90500000000000	1.07908750789295	206.75339441287881	12.78293434343434
11.91500000000000	1.07978032178963	207.15241287878789	12.76859090909091
11.92500000000000	1.07965413630136	207.55067834595960	12.74449494949495
11.93500000000000	1.08001872488815	207.94836994949495	12.72613131313131
11.94500000000000	1.08027429375709	208.34544539141416	12.70641414141414
11.95500000000000	1.08071405629659	208.74197017045455	12.68879292929293
11.96500000000000	1.08178545762802	209.13817329545455	12.67850000000000
11.97500000000000	1.08052736992391	209.53319996843436	12.64085353535354
11.98500000000000	1.08174684484526	209.92795422979799	12.63213636363636
11.99500000000000	1.08146686606226	210.32188652146465	12.60583333333333
12.00500000000000	1.08203366090996	210.71530334595960	12.58933838383838
12.01500000000000	1.08284046180352	211.10828929924244	12.57555050505051
12.02500000000000	1.08299022085924	211.50060353535355	12.55405555555556
12.03500000000000	1.08348279301025	211.89236805555555	12.53646464646465
12.04500000000000	1.08263819702649	212.28309785353537	12.50335353535354
12.05500000000000	1.08413141935493	212.67363446969696	12.49717171717172
12.06500000000000	1.08343157077019	213.06318560606061	12.46563636363636
12.07500000000000	1.08368082292135	213.45209106691919	12.44497474747475
12.08500000000000	1.08525205135474	213.84082228535354	12.43939898989899
12.09500000000000	1.08544401087111	214.22888226010102	12.41791919191919
12.10500000000000	1.08401437546553	214.61569034090911	12.37785858585859
12.11500000000000	1.08539069141992	215.00224605429293	12.36978282828283
12.12500000000000	1.08579598547916	215.38820059974748	12.35054545454546
12.13500000000000	1.08485893764762	215.77307544191919	12.31599494949495
12.14500000000000	1.08503309691394	216.15726357323234	12.29402020202020
12.15500000000000	1.08603065417911	216.54105397727272	12.28129292929293
12.16500000000000	1.08491912771570	216.92369965277780	12.24466161616162
12.17500000000000	1.08714321946596	217.30637452651516	12.24559595959596
12.18500000000000	1.08753330016732	217.68842945075758	12.22575757575758
12.19500000000000	1.08707869982952	218.06956597222222	12.19636868686869
12.20500000000000	1.08622676917426	218.44964393939395	12.16249494949495
12.21500000000000	1.08751740559954	218.82941098484849	12.15254545454546
12.22500000000000	1.08786725040843	219.20853566919192	12.13198989898990
12.23500000000000	1.08757328509243	219.58679182449495	12.10419696969697
12.24500000000000	1.08763650732657	219.96430208333334	12.08032828282828
12.25500000000000	1.08958277741853	220.34171685606060	12.07727272727273
12.26500000000000	1.08842231611197	220.71795770202021	12.03970707070707
12.27500000000000	1.08917049794417	221.09368292297981	12.02320707070707
12.28500000000000	1.08802654408574	221.46823832070709	11.98577272727273
12.29500000000000	1.08978006617025	221.84261916035354	11.98018686868687
12.30500000000000	1.08844538851270	222.21576246843435	11.94058585858586
12.31500000000000	1.08893119345996	222.58829119318182	11.92091919191919
12.32500000000000	1.09002937347397	222.96041193181819	11.90786363636364
12.33500000000000	1.09032567798973	223.33184816919191	11.88595959595960
12.34500000000000	1.08957683728248	223.70224242424243	11.85261616161616
12.35500000000000	1.08985964006358	224.07194397095961	11.83044949494949
12.36500000000000	1.08993018254369	224.44087878787880	11.80591414141414
12.37500000000000	1.08988055207286	224.80900441919192	11.78002020202020
12.38500000000000	1.09131804366802	225.17682039141414	11.77011111111111
12.39500000000000	1.09088467027646	225.54369365530303	11.73994444444445
12.40500000000000	1.09120059462169	225.90987452651515	11.71778787878788
12.41500000000000	1.09142088947152	226.27532875631314	11.69453535353535
12.42500000000000	1.09192000404913	226.64014741161617	11.67419696969697
12.43500000000000	1.09148117690748	227.00401530934343	11.64377272727273
12.44500000000000	1.09143478684105	227.36706186868687	11.61748989898990
12.45500000000000	1.09054086500315	227.72900410353537	11.58215151515152
12.46500000000000	1.09036127202803	228.09007812500002	11.55436868686869
12.47500000000000	1.09114347536786	228.45060022095961	11.53670707070707
12.48500000000000	1.09096220797278	228.81024984217171	11.50878787878788
12.49500000000000	1.09207482238418	229.16945107323232	11.49443939393939
12.50500000000000	1.09262460926095	229.52801578282828	11.47407070707071
12.51500000000000	1.09091287243045	229.88520091540406	11.42992424242424
12.52500000000000	1.09196033967808	230.24190861742426	11.41464646464646
12.53500000000000	1.09121514914815	230.59755129419193	11.38056565656566
12.54500000000000	1.09171063902524	230.95253172348487	11.35937373737374
12.55500000000000	1.09201489351660	231.30678535353536	11.33611616161616
12.56500000000000	1.09291219271330	231.66050189393940	11.31892929292929
12.57500000000000	1.09210152482236	232.01312673611113	11.28399494949495
12.58500000000000	1.09332535412313	232.36531470959596	11.27001515151515
12.59500000000000	1.09422947252831	232.71695943813131	11.25263131313131
12.60500000000000	1.09230830514003	233.06715198863637	11.20616161616162
12.61500000000000	1.09218217347810	233.41646764520203	11.17810101010101
12.62500000000000	1.09331938285650	233.76530792297982	11.16288888888889
12.63500000000000	1.09282140429441	234.11314883207072	11.13090909090909
12.64500000000000	1.09109586433490	234.45959958964647	11.08642424242424
12.65500000000000	1.09398395222964	234.80612247474747	11.08873232323232
12.66500000000000	1.09246979323023	235.15132023358586	11.04632828282828
12.67500000000000	1.09195823786837	235.49550946969697	11.01405555555556
12.68500000000000	1.09252395941188	235.83902793560605	10.99259090909091
12.69500000000000	1.09292049098522	236.18181991792929	10.96934343434343
12.70500000000000	1.09184658796895	236.52342297979800	10.93129797979798
12.71500000000000	1.09286311504033	236.86448942550507	10.91412626262626
12.72500000000000	1.09248402938901	237.20458143939393	10.88294444444444
12.73500000000000	1.09349479016567	237.54412941919193	10.86553535353535
12.74500000000000	1.09124954983633	237.88212152777780	10.81574747474748
12.75500000000000	1.09168676508195	238.21938825757576	10.79253535353535
12.76500000000000	1.09102103464906	238.55558727904042	10.75836868686869
12.77500000000000	1.09219594229557	238.89128361742425	10.74228282828283
12.78500000000000	1.09129300479631	239.22583664772728	10.70569696969697
12.79500000000000	1.09267931083516	239.55994602272727	10.69150000000000
12.80500000000000	1.09198737407739	239.89297395833333	10.65689393939394
12.81500000000000	1.09147558905886	240.22497458964648	10.62402020202020
12.82500000000000	1.09112195879119	240.55599494949496	10.59265151515152
12.83500000000000	1.09052295654545	240.88595959595960	10.55886868686869
12.84500000000000	1.09011803452824	241.21492629419194	10.52693434343434
12.85500000000000	1.09093657167343	241.54326215277780	10.50674747474748
12.86500000000000	1.09136996939183	241.87084848484849	10.48276262626263
12.87500000000000	1.09115836076181	242.19748974116163	10.45252020202020
12.88500000000000	1.08929363512866	242.52269097222222	10.40643939393939
12.89500000000000	1.09014886937178	242.84726325757578	10.38631313131313
12.90500000000000	1.09080422464392	243.17114409722222	10.36418686868687
12.91500000000000	1.09082259275771	243.49414204545457	10.33593434343434
12.92500000000000	1.09065943208791	243.81620170454545	10.30590909090909
12.93500000000000	1.09039416258813	244.13729150883839	10.27487373737374
12.94500000000000	1.09024413854106	244.45744397095962	10.24487878787879
12.95500000000000	1.09117670424158	244.77697458964647	10.22497979797980
12.96500000000000	1.08884896649505	245.09492803030304	10.17451010101010
12.97500000000000	1.08989578493866	245.41228898358585	10.15555050505051
12.98500000000000	1.08855425004725	245.72836047979800	10.11428787878788
12.99500000000000	1.08900293270321	246.04366130050505	10.08962626262626
13.00500000000000	1.08919460352679	246.35811474116161	10.06251010101010
13.01500000000000	1.08774707954767	246.67124684343435	10.02022727272727
13.02500000000000	1.08802712080430	246.98355413510103	9.99383333333333
13.03500000000000	1.08799344582319	247.29494460227272	9.96449494949495
13.04500000000000	1.08999935642800	247.60599857954546	9.95372727272727
13.05500000000000	1.08749475720699	247.91542755681820	9.90172727272727
13.06500000000000	1.08722802758034	248.22386884469697	9.87012121212121
13.07500000000000	1.08729012010756	248.53141414141416	9.84144949494950
13.08500000000000	1.08897788352038	248.83852004419194	9.82738888888889
13.09500000000000	1.08715688873451	249.14419539141414	9.78161111111111
13.10500000000000	1.08764858856847	249.44908980429292	9.75662121212121
13.11500000000000	1.08822353867449	249.75322395833334	9.73229292929293
13.12500000000000	1.08758251586535	250.05625631313131	9.69703535353535
13.13500000000000	1.08776378840161	250.35841461489900	9.66906565656566
13.14500000000000	1.08604612605619	250.65917092803031	9.62420202020202
13.15500000000000	1.08664641316232	250.95916635101011	9.59985353535354
13.16500000000000	1.08766683768745	251.25851373106062	9.57911616161616
13.17500000000000	1.08577947990678	251.55641177398991	9.53273737373737
13.18500000000000	1.08791688239313	251.85396275252526	9.52163131313131
13.19500000000000	1.08631613475145	252.15014204545454	9.47773737373737
13.20500000000000	1.08786265690749	252.44580602904043	9.46124747474748
13.21500000000000	1.08618181547392	252.74007591540405	9.41663636363636
13.22500000000000	1.08717865930629	253.03367597853537	9.39520202020202
13.23500000000000	1.08682586793251	253.32623942550507	9.36203030303030
13.24500000000000	1.08575915273484	253.61757354797982	9.32269191919192
13.25500000000000	1.08572477595446	253.90795454545454	9.29219191919192
13.26500000000000	1.08486553423900	254.19716082702021	9.25460101010101
13.27500000000000	1.08520770569757	254.48551136363636	9.22721717171717
13.28500000000000	1.08576138404929	254.77305981691919	9.20155050505051
13.29500000000000	1.08581356249086	255.05967108585858	9.17156060606061
13.30500000000000	1.08680623892575	255.34559075126265	9.14942929292929
13.31500000000000	1.08536301332899	255.63017660984849	9.10674747474748
13.32500000000000	1.08611036704937	255.91400189393940	9.08240909090909
13.33500000000000	1.08512422940526	256.19661205808080	9.04352525252525
13.34500000000000	1.08434306257293	256.47806029040407	9.00634343434344
13.35500000000000	1.08522477323294	256.75877635732326	8.98291414141414
13.36500000000000	1.08511220386030	257.03850063131313	8.95117676767677
13.37500000000000	1.08564524635869	257.31739741161618	8.92469696969697
13.38500000000000	1.08389606754335	257.59487973484852	8.87943434343434
13.39500000000000	1.08360529253292	257.87132102272727	8.84612121212121
13.40500000000000	1.08516076947272	258.14718939393941	8.82778787878788
13.41500000000000	1.08492612561675	258.42202683080808	8.79479797979798
13.42500000000000	1.08276101269625	258.69534469696970	8.74617171717172
13.43500000000000	1.08410190852055	258.96802698863638	8.72583333333333
13.44500000000000	1.08443800001544	259.23981770833336	8.69730303030303
13.45500000000000	1.08482778054475	259.51072790404044	8.66912626262626
13.46500000000000	1.08345013433582	259.78031534090911	8.62679797979798
13.47500000000000	1.08458795498390	260.04920438762628	8.60444949494950
13.48500000000000	1.08422179675845	260.31701972853534	8.57009090909091
13.49500000000000	1.08440774196141	260.58389614898988	8.54004545454545
13.50500000000000	1.08442198647810	260.84978945707070	8.50858585858586
13.51500000000000	1.08356095827266	261.11448405934345	8.47022727272727
13.52500000000000	1.08348083894993	261.37816982323233	8.43794444444445
13.53500000000000	1.08272383507841	261.64068102904042	8.40035858585859
13.54500000000000	1.08382408443132	261.90246590909089	8.37711616161616
13.55500000000000	1.08277414949914	262.16300331439396	8.33719696969697
13.56500000000000	1.08392660895910	262.42282133838387	8.31417676767677
13.57500000000000	1.08362461652171	262.68156881313132	8.27991919191919
13.58500000000000	1.08400512921848	262.93940688131312	8.25081818181818
13.59500000000000	1.08338415418526	263.19609580176768	8.21404545454545
13.60500000000000	1.08134130760124	263.45129940025254	8.16651515151515
13.61500000000000	1.08317039430588	263.70592992424241	8.14817676767677
13.62500000000000	1.08240413719299	263.95937452651515	8.11022727272727
13.63500000000000	1.08173334223045	264.21165514520203	8.07297979797980
13.64500000000000	1.08282924471713	264.46318166035354	8.04884848484848
13.65500000000000	1.08116501008544	264.71331171085859	8.00416161616162
13.66500000000000	1.08325397049142	264.96291145833334	7.98719191919192
13.67500000000000	1.08326029833440	265.21149731691918	7.95474747474748
13.68500000000000	1.08248568807951	265.45888904671716	7.91653535353535
13.69500000000000	1.08129838655223	265.70499242424245	7.87530808080808
13.70500000000000	1.08111652676036	265.95003582702020	7.84138888888889
13.71500000000000	1.08212121223576	266.19428566919191	7.81599494949495
13.72500000000000	1.08115355141602	266.43729498106063	7.77629797979798
13.73500000000000	1.08101125538760	266.67924857954546	7.74251515151515
13.74500000000000	1.08188471329699	266.92037136994952	7.71592929292929
13.75500000000000	1.08159367249989	267.16040151515153	7.68096464646465
13.76500000000000	1.08285153655946	267.39968008207069	7.65691414141414
13.77500000000000	1.08098413182751	267.63751530934343	7.61072727272727
13.78500000000000	1.08058396623596	267.87423042929294	7.57488383838384
13.79500000000000	1.08082365598482	268.10996401515155	7.54347474747475
13.80500000000000	1.08082493558988	268.34466208964648	7.51033838383838
13.81500000000000	1.08154976556242	268.57847932449494	7.48215151515152
13.82500000000000	1.08045150632719	268.81102020202019	7.44130808080808
13.83500000000000	1.08045277224604	269.04252067550505	7.40801515151515
13.84500000000000	1.07988064687311	269.27285669191917	7.37075252525253
13.85500000000000	1.08059375643314	269.50230050505053	7.34220202020202
13.86500000000000	1.08071084806247	269.73072301136364	7.30952020202020
13.87500000000000	1.08002115497432	269.95795249368689	7.27134343434343
13.88500000000000	1.08024907959696	270.18418071338385	7.23930303030303
13.89500000000000	1.08107430643606	270.40952998737373	7.21117676767677
13.90500000000000	1.07853815300893	270.63329955808081	7.16062626262626
13.91500000000000	1.07923020601278	270.85615924873736	7.13151010101010
13.92500000000000	1.07936521474917	271.07799147727275	7.09863131313131
13.93500000000000	1.08033954124001	271.29896590909090	7.07118181818182
13.94500000000000	1.07860574713482	271.51852761994951	7.02597474747475
13.95500000000000	1.07990146457871	271.73729198232326	7.00045959595960
13.96500000000000	1.07869832552184	271.95475094696968	6.95868686868687
13.97500000000000	1.07789331069716	272.17098500631312	6.91948989898990
13.98500000000000	1.07876444082389	272.38632859848485	6.89099494949495
13.99500000000000	1.07810280143822	272.60047380050509	6.85264646464646
14.00500000000000	1.07924411261514	272.81377651515152	6.82568686868687
