70
From opt_geoms/MULTIMERS/febpy3-3h2o-quintet-poses-ACB.xyz Fe-O Distance: 6.0000 Ang
Fe       0.00000000       0.00000000       0.00000000
N        1.22428151       0.61263601       1.74066285
C        2.34305105      -0.01098561       2.10276433
H        2.67042813      -0.79959821       1.44611119
C        3.04808132       0.31077004       3.24947798
H        3.94378306      -0.23854996       3.49953371
C        2.56083215       1.33360213       4.04909407
H        3.07105802       1.61366782       4.96141493
C        1.40242402       1.99314077       3.67087222
H        1.00722339       2.78627152       4.28672590
C        0.74890475       1.61220704       2.50399689
C       -0.50060355       2.23989997       2.03326033
C       -1.05423834       3.37082970       2.62070507
H       -0.55276785       3.87009390       3.43594179
C       -2.26440803       3.85748894       2.14809032
H       -2.71219401       4.73221058       2.60137391
C       -2.89051174       3.20494709       1.09823208
H       -3.83898399       3.52991209       0.69751849
C       -2.26338918       2.09809489       0.54941727
H       -2.71385331       1.55360202      -0.26185433
N       -1.09941288       1.63085575       0.99534643
N        1.18046842       1.19008309      -1.45629048
C        2.32685414       1.78923077      -1.14095809
H        2.68083504       1.62064190      -0.13730643
C        3.02811692       2.58706128      -2.02803903
H        3.94798699       3.05983189      -1.71672149
C        2.50559662       2.76548240      -3.30031150
H        3.01251208       3.39015226      -4.02401408
C        1.31758956       2.13613524      -3.63566533
H        0.89699813       2.26680900      -4.62032070
C        0.67266379       1.34588076      -2.69052256
C       -0.59932833       0.64493173      -2.94937847
C       -1.21681528       0.61752083      -4.19431346
H       -0.75904013       1.09622378      -5.04629527
C       -2.43884927      -0.02516062      -4.33203929
H       -2.94026729      -0.04023504      -5.29118307
C       -3.00437040      -0.64184812      -3.22659549
H       -3.95447623      -1.15272495      -3.27288850
C       -2.31256458      -0.59703190      -2.02690809
H       -2.70650084      -1.07045078      -1.14485084
N       -1.14605255       0.02908428      -1.88826660
N        1.12574139      -1.87221857      -0.36178627
C        2.25552086      -1.92701676      -1.06550467
H        2.67095880      -0.97883141      -1.36477661
C        2.86831687      -3.11718107      -1.41709815
H        3.77977143      -3.10051500      -1.99672567
C        2.26711559      -4.30297512      -1.02077503
H        2.69898606      -5.25805747      -1.28873899
C        1.09774274      -4.25097293      -0.27951622
H        0.61056137      -5.16400802       0.02609814
C        0.55107727      -3.01488375       0.04904637
C       -0.68450128      -2.86059290       0.84067320
C       -1.32763371      -3.92179047       1.46547327
H       -0.91714723      -4.91878459       1.41559719
C       -2.51037358      -3.69155031       2.15112731
H       -3.02554879      -4.51048112       2.63549656
C       -3.02269185      -2.40491285       2.20059606
H       -3.94621294      -2.16995008       2.70786746
C       -2.31214156      -1.39467310       1.57667480
H       -2.65973877      -0.37696786       1.59450110
N       -1.17393032      -1.61058211       0.91867361
O       -0.01866796      -1.49140210       4.13115442
H        0.00773207      -1.92106579       4.99240218
H        0.69561682      -1.91469001       3.61735139
O        2.66639257      -3.89586936       3.70304639
H        2.77828876      -4.77584388       4.07715894
H        3.53449307      -3.64915197       3.33317683
O        4.58002054      -2.19166880       1.69824528
H        5.32221471      -2.80504203       1.71379097
H        4.82197078      -1.47826746       1.07782913
