64
RI-MP2/def2-TZVP geometry of the LS state in pose B
H    2.95394829306403      2.39667458819600      3.52744399705310
H    2.37933761496732      4.65783372143320      2.60019847537465
C    2.26716687536606      2.50445554172556      2.69693253061885
C    1.94516772627988      3.75725622412132      2.18246209911365
H   -3.35079503387253      1.30041021068713      3.68101775945373
H    0.83557487595913     -3.59129422937211      3.72594964328851
H    1.91963974445025      0.38414790799221      2.50401451009198
H    3.10664317405091     -4.19420582288106      2.84185821306834
C    1.69345960737360      1.37471095964305      2.12796319629627
C   -3.12955114627732      0.61031584053020      2.87613649202316
H   -1.17734522075000      1.44280200271932      2.48593475038526
C    1.05348748301370      3.83194601806282      1.12091321684774
H    0.78881333216604      4.79388098590847      0.70061500541340
C    1.25437033509928     -3.08622070972299      2.86420766140923
H   -5.00255039693100     -0.45672159050116      2.98383414514064
C    2.51415474870088     -3.41741160338597      2.37324883631015
C   -1.91316047653629      0.69650649619098      2.21113857565494
H   -0.45618569697216     -1.80010483641993      2.58811608314070
C   -4.04299818226539     -0.36614024004292      2.48873031168715
C    0.52567005020975     -2.08727913037616      2.23118634562474
N    0.82958018109052      1.43703776216626      1.09790293407413
C    0.50739144316741      2.65807306976778      0.60001747883169
C    2.99888744233254     -2.73252516579412      1.26702026932576
H    3.97308631050003     -2.97558260641907      0.86228296818435
N    0.98744782784505     -1.41788581609690      1.15906811624573
N   -1.57306224182727     -0.13131619353538      1.20636289667973
C   -3.70245728516345     -1.22200345304971      1.44985033062019
C    2.21692967395063     -1.73601962600448      0.68127267343341
H   -0.73187546180331      4.73093864789417     -0.79194064033171
C   -0.45954525557754      2.61110591333845     -0.49988080765396
H   -4.39909989880317     -1.98302934557689      1.12180723076595
C   -2.46029397754138     -1.08620217149306      0.82857656668886
Fe   0.04548988340458     -0.05955553277700      0.14132705572993
C   -1.00962606195422      3.73581835129993     -1.11550238166451
C    2.62333346173077     -0.94299038059787     -0.48212427475528
H    4.62444894797264     -1.71267289062666     -0.71909569970772
N   -0.79543977304041      1.35195344415969     -0.87833580020144
N    1.66390309688858     -0.09377149122732     -0.92914298617757
C    3.87092407061783     -1.03540900313965     -1.10049967952834
C   -1.98971107055720     -1.92990858720179     -0.27266469751253
C   -1.92555462537885      3.56750998620253     -2.14593277392675
N   -0.81173087894024     -1.52291868694754     -0.80764798456046
C    1.93522415040817      0.66676665977647     -2.00566659582949
H   -2.36280230581425      4.42868603395577     -2.63722561601131
C    4.14256380434395     -0.24491851585104     -2.20913294702190
H    1.14153884986224      1.32442585850656     -2.33933020117307
C   -1.69048600063649      1.19498478464671     -1.87083100317830
C    3.15384382363419      0.61935294404491     -2.67082295692657
H   -3.58505684500501     -3.37976489575122     -0.27505383168589
H    5.10565450843539     -0.30192195993321     -2.70233390347561
C   -2.65957327823263     -3.06120745785603     -0.73778560361715
C   -2.27148580281914      2.27404685933308     -2.52622693259432
H   -1.94998149039424      0.18194052190558     -2.15095019097829
H    3.31818616950881      1.25235858394475     -3.53417909907180
C   -0.30390122184290     -2.22480886986075     -1.83640609404922
H    0.63121793502310     -1.86345156366029     -2.24736606107548
H   -2.98282864467872      2.08594623248488     -3.32060631354208
C   -2.12032307793666     -3.78682858197121     -1.79023863199568
C   -0.92363601597468     -3.35516266246283     -2.35314943610734
H   -2.62026043579408     -4.67424556947002     -2.15964316131519
H   -0.46491646673436     -3.88725167719255     -3.17761015935886
O   -3.36279321385444     -1.01325510823896     -3.47153144416575
H   -3.15010806872181     -1.28646746820797     -4.37267076970852
H   -4.32792688878603     -1.00052670699197     -3.45384068967387
